<?xml version="1.0" encoding="UTF-8"?>
<svg width="39" height="39" xmlns="http://www.w3.org/2000/svg" viewBox="0 0 39 39">
  <defs>
    <style>
      .cls-1, .cls-2, .cls-3 {
        stroke-width: 0px;
      }

      .cls-2 {
        fill: red;
      }

      .cls-3 {
        fill: #fff;
      }
    </style>
  </defs>
  <g id="_Слой_1" data-name="Слой 1">
    <circle class="cls-3" cx="19.5" cy="19.5" r="19.5"/>
  </g>
  <g id="_Слой_16" data-name="Слой 16">
    <g>
      <path class="cls-1" d="m4.72,15.26l-2.27,6.66h1.34l.64-1.94h1.85l.66,1.94h1.36l-2.28-6.66h-1.3Zm1.23,3.61h-1.19l.5-1.47c.03-.1.07-.2.1-.3.03.1.06.2.1.31l.49,1.45Z"/>
      <path class="cls-1" d="m10.54,18.89c-.61-.24-.68-.36-.68-.53,0-.23.19-.36.49-.36.36,0,.64.14.78.23l.26.16.35-1.06-.16-.1c-.3-.2-.76-.31-1.22-.31-1.03,0-1.77.65-1.77,1.55,0,.82.73,1.26,1.34,1.48.61.23.66.39.66.58,0,.36-.38.42-.61.42-.35,0-.73-.15-.95-.28l-.26-.15-.34,1.07.16.1c.38.22.88.35,1.37.35,1.13,0,1.89-.64,1.89-1.58s-.76-1.34-1.32-1.55Z"/>
      <path class="cls-1" d="m13.87,15.86l-1.27.39v.76h-.69v1.1h.69v2.18c0,.61.12,1.04.38,1.33.25.27.62.42,1.05.42.39,0,.67-.08.8-.13l.17-.06-.07-1.1-.3.09c-.09.02-.19.05-.4.05-.15,0-.36,0-.36-.62v-2.15h1.15v-1.1h-1.15v-1.15h0Z"/>
      <path class="cls-1" d="m18.13,16.96l-.23-.03c-.07-.01-.14-.02-.23-.02-.4,0-.77.16-1.06.45l-.02-.36h-1.19l.02.26c.02.38.04.81.04,1.37v3.3h1.29v-2.6c0-.12.01-.24.02-.33.1-.51.42-.83.85-.83.1,0,.16,0,.22.01l.3.06v-1.28h0Z"/>
      <path class="cls-1" d="m20.48,16.91c-1.44,0-2.44,1.06-2.44,2.59s.97,2.52,2.37,2.52c1.18,0,2.45-.81,2.45-2.6,0-1.48-.97-2.52-2.38-2.52Zm1.07,2.55c0,.86-.47,1.48-1.1,1.48s-1.1-.62-1.1-1.46c0-.55.23-1.47,1.11-1.47.86-.01,1.09.94,1.09,1.45Z"/>
      <path class="cls-1" d="m27.09,15.79c-.42-.38-1.06-.57-1.89-.57-.56,0-1.09.04-1.57.12l-.2.03v6.56h1.28v-2.43c.13.01.27.02.4.02.86,0,1.6-.27,2.06-.75.36-.38.55-.88.55-1.49,0-.6-.23-1.12-.63-1.48Zm-.66,1.52c0,.93-.82,1.07-1.31,1.07-.16,0-.3,0-.42-.02v-2c.13-.02.3-.02.51-.02.55,0,1.21.17,1.21.98Z"/>
      <path class="cls-1" d="m31.63,20.62v-1.66c0-1.32-.69-2.05-1.93-2.05-.57,0-1.18.16-1.59.42l-.16.1.35,1.02.26-.18c.27-.18.65-.29,1.03-.29.26,0,.45.06.57.18.1.1.16.26.19.45-1.01.03-1.74.27-2.19.72-.31.31-.47.71-.47,1.18,0,.76.55,1.52,1.6,1.52.45,0,.87-.14,1.2-.39l.03.3h1.22l-.05-.28c-.04-.27-.06-.62-.06-1.03Zm-2.15.33c-.19,0-.51-.07-.51-.53,0-.18.05-.32.16-.43.15-.15.48-.32,1.23-.33v.53s0,.11-.02.18c-.09.27-.37.58-.86.58Z"/>
      <path class="cls-1" d="m35.19,17l-.94,2.77c-.02.07-.05.14-.07.21-.02-.07-.05-.14-.07-.2l-1.02-2.78h-1.4l1.76,4.42h0c.03.07.04.1.04.11-.01.02-.03.07-.04.1-.15.32-.38.63-.61.81h0c-.26.23-.52.32-.63.35l-.23.07.33,1.1.21-.04c.13-.02.59-.13,1.11-.57.63-.56,1.04-1.44,1.59-2.87l1.34-3.49h-1.36Z"/>
      <path class="cls-2" d="m7.16,17.09c.83-.85,2.24-1.35,3.77-1.35.6,0,1.18.07,1.73.23h.05s.98-.28.98-.28l-.44-.17c-.84-.32-1.8-.49-2.79-.49-1.44,0-2.78.35-3.78.98l-.11.07.42,1.21.17-.19Z"/>
    </g>
  </g>
</svg>