<?xml version="1.0" encoding="UTF-8"?>
<svg width="39" height="39" xmlns="http://www.w3.org/2000/svg" viewBox="0 0 39 39">
  <defs>
    <style>
      .cls-1 {
        fill: #356795;
      }

      .cls-1, .cls-2, .cls-3 {
        stroke-width: 0px;
      }

      .cls-2 {
        fill: #fff;
      }

      .cls-3 {
        fill: #356a97;
      }
    </style>
  </defs>
  <g id="_Слой_1" data-name="Слой 1">
    <circle class="cls-2" cx="19.5" cy="19.5" r="19.5"/>
  </g>
  <g id="_Слой_17" data-name="Слой 17">
    <g>
      <path class="cls-1" d="m8.4,24.25H3.52c-.26,0-.49-.06-.61-.32-.1-.19-.07-.42.06-.58.05-.05.11-.09.18-.11.51-.06.43-.42.43-.76,0-1.35,0-2.69.01-4.04,0-.22.03-.43-.27-.48-.11-.01-.18-.11-.17-.22,0,0,0-.02,0-.02.01-.11.09-.2.2-.23.09-.02.18-.02.28-.02,3.17,0,6.35,0,9.52,0,.11,0,.22,0,.32.03.12.03.2.14.2.27,0,.11-.07.23-.17.24-.27.02-.27.15-.27.35,0,1.48-.01,2.96-.02,4.44,0,.19.02.34.26.37.34.04.5.26.46.58-.04.35-.27.49-.62.49-1.64,0-3.28,0-4.92,0h0Zm-.85-3.67h0c0,.73,0,1.46,0,2.2,0,.26.08.36.34.35.36-.01.72,0,1.08,0,.21,0,.31-.06.31-.29,0-1.5,0-3.01.01-4.51,0-.25-.11-.33-.34-.32-.33.02-.67.02-1,0-.33-.02-.41.12-.4.42,0,.72,0,1.44,0,2.16Zm-1.13,0h.01c0-.74-.01-1.49,0-2.23,0-.27-.09-.35-.34-.34-.36.02-.72,0-1.08,0-.19,0-.29.05-.29.27,0,1.53,0,3.06,0,4.59,0,.18.07.27.26.26.33,0,.67-.02,1,0s.47-.07.45-.44c-.03-.7,0-1.41,0-2.11h0Zm5.69,0h0c0-.75,0-1.49,0-2.24,0-.24-.07-.34-.32-.33-.37.01-.74,0-1.12,0-.18,0-.27.06-.27.25,0,1.53,0,3.06,0,4.59,0,.19.07.26.26.26.36,0,.72-.02,1.08,0,.31.02.38-.11.37-.39-.02-.72,0-1.44,0-2.15h0Z"/>
      <path class="cls-1" d="m8.42,16.94H2.9c-.16,0-.32.02-.46-.09-.39-.29-.35-.75.11-.99.57-.29,1.16-.54,1.74-.8,1.26-.57,2.52-1.13,3.78-1.7.2-.11.44-.11.65-.01,1.83.83,3.67,1.65,5.5,2.48.28.13.52.32.42.68-.09.34-.34.45-.7.45-1.84-.02-3.68,0-5.52,0Z"/>
      <path class="cls-1" d="m3.15,25.72c-.15,0-.29,0-.44,0-.32-.01-.51-.2-.53-.49-.02-.31.17-.52.48-.6.12-.02.24-.03.36-.02,3.56,0,7.12,0,10.68,0h.24c.44.01.72.24.72.57s-.25.53-.7.53c-1.65,0-3.31.01-4.96.02h-.6s-3.49,0-5.24,0Z"/>
      <path class="cls-3" d="m17.4,15.7h1.69c.39,0,.69.08.89.25.2.16.32.42.31.68,0,.35-.21.66-.53.78.42.09.72.47.7.9.01.3-.11.59-.33.79-.23.21-.54.32-.85.3h-1.89v-3.71Zm.64.53v1.02h.88c.25,0,.43-.04.55-.12.12-.08.18-.21.18-.39,0-.21-.06-.35-.18-.41-.16-.07-.34-.11-.52-.1h-.91Zm0,1.49v1.16h.97c.2.01.41-.03.59-.12.14-.08.21-.23.21-.45,0-.11-.02-.21-.06-.31-.04-.08-.11-.14-.19-.18-.08-.04-.16-.07-.25-.08-.1-.02-.2-.02-.31-.02h-.96Z"/>
      <path class="cls-3" d="m21.69,19.46c-.14,0-.27-.03-.4-.09-.11-.06-.21-.15-.27-.26-.12-.24-.13-.53-.03-.78.05-.09.11-.18.2-.24.08-.06.18-.11.27-.15.1-.03.2-.06.3-.08l.77-.12c.01-.11,0-.23-.06-.33-.05-.08-.12-.13-.21-.16-.1-.03-.2-.04-.3-.04-.06,0-.13,0-.19.01-.07,0-.14.02-.22.04-.08.02-.15.04-.24.07s-.17.06-.25.1l-.03-.49c.06-.03.14-.05.22-.08s.17-.05.26-.07c.09-.02.19-.04.29-.05.1-.01.2-.02.3-.02.18,0,.36.03.53.09.14.06.26.16.34.29.08.16.12.34.12.52v1.75h-.5l-.03-.34h-.05c-.06.07-.12.13-.19.19-.08.06-.17.12-.27.15-.11.04-.23.06-.34.06Zm.18-.44c.09,0,.17-.02.25-.06.08-.04.16-.09.23-.16.07-.07.13-.16.18-.25v-.46s-.07.03-.1.04c-.06.02-.12.03-.18.05-.08.02-.2.04-.34.06-.08.01-.15.04-.22.08-.06.03-.11.08-.14.14-.03.06-.05.14-.05.21-.01.1.03.2.12.27.08.05.18.08.27.08Z"/>
      <path class="cls-3" d="m23.82,19.41v-2.59l.48-.03.02.47h.06c.06-.09.13-.17.21-.24.09-.08.19-.14.3-.19.12-.05.26-.08.39-.08.27,0,.47.08.6.23s.19.39.19.69v1.73h-.56v-1.57c0-.15-.02-.29-.1-.42-.06-.1-.18-.14-.35-.14-.1,0-.19.02-.28.06-.08.04-.16.09-.23.16-.07.07-.13.15-.18.23v1.68h-.55Z"/>
      <path class="cls-3" d="m26.8,15.71h.61v3.7h-.61v-3.7Zm.27,2.72l1.29-1.66h.67l-1.94,2.35-.03-.69Zm.62-.47l.45-.35,1.02,1.79h-.69l-.79-1.44Z"/>
      <path class="cls-3" d="m18.38,24.61v-3.62l.24.44h-1.46v-.54h3.04v.54h-1.46l.24-.44v3.62h-.61Z"/>
      <path class="cls-3" d="m20.37,24.61v-2.59l.48-.03.02.51h.05c.06-.13.14-.25.24-.35.08-.07.17-.13.27-.16.08-.03.17-.04.26-.04.05,0,.09,0,.14.01.05,0,.09.02.14.03l-.05.55c-.06-.01-.12-.02-.16-.02s-.1,0-.17,0c-.05,0-.11,0-.16.02-.06.02-.12.04-.18.08-.07.05-.13.11-.17.18-.06.1-.11.2-.14.31v1.5h-.56Z"/>
      <path class="cls-3" d="m23.03,24.67c-.14,0-.27-.03-.4-.09-.11-.06-.21-.15-.27-.26-.07-.13-.1-.27-.1-.41,0-.13.02-.25.07-.36.05-.09.11-.18.2-.24.08-.06.17-.11.27-.15.1-.03.2-.06.3-.08l.77-.12c.01-.11,0-.23-.06-.33-.05-.08-.12-.13-.21-.16-.1-.03-.2-.04-.3-.04-.06,0-.13,0-.19.01-.07,0-.15.02-.22.04-.08.02-.15.04-.24.07s-.17.06-.25.1l-.03-.49c.06-.03.14-.05.22-.08s.17-.05.26-.07c.09-.02.19-.04.29-.05.1-.01.2-.02.3-.02.18,0,.36.03.53.09.14.06.26.16.34.29.08.16.13.34.12.52v1.75h-.5l-.03-.34h-.05c-.06.07-.12.13-.19.19-.08.06-.17.12-.27.15-.11.04-.23.06-.35.06Zm.18-.44c.09,0,.17-.02.25-.06.08-.04.16-.09.23-.16.07-.07.13-.16.18-.25v-.46s-.07.03-.1.04c-.06.02-.12.03-.18.05-.08.02-.2.04-.34.06-.08.01-.15.04-.22.08-.06.03-.11.08-.14.14-.03.06-.05.14-.05.21-.01.1.03.2.12.27.08.05.18.08.27.08Z"/>
      <path class="cls-3" d="m25.16,24.61v-2.59l.48-.03.02.47h.05c.06-.09.13-.17.21-.24.09-.08.19-.14.3-.19.12-.05.26-.08.39-.08.27,0,.47.08.6.23s.19.39.19.69v1.73h-.56v-1.57c0-.15-.02-.29-.1-.42-.06-.1-.18-.14-.35-.14-.1,0-.19.02-.28.06-.08.04-.16.1-.23.16-.07.07-.13.15-.18.23v1.68h-.55Z"/>
      <path class="cls-3" d="m28.92,24.67c-.11,0-.22,0-.33-.02-.1-.01-.21-.04-.31-.07-.09-.03-.17-.06-.25-.1l.04-.5c.08.05.17.09.25.12.09.04.19.06.29.08.1.02.2.03.3.03.08,0,.15,0,.23-.02.07-.01.12-.05.17-.09.05-.06.07-.13.06-.21,0-.06-.02-.11-.06-.15-.06-.05-.12-.09-.2-.11-.09-.03-.21-.07-.37-.11-.13-.03-.26-.08-.38-.14-.1-.05-.19-.13-.25-.23-.06-.12-.09-.25-.09-.38-.01-.22.08-.44.24-.59.18-.15.41-.22.65-.21.11,0,.22,0,.33.03.1.02.2.04.3.07.08.02.15.05.23.09l-.04.5c-.08-.05-.17-.09-.26-.13-.09-.03-.18-.06-.27-.08-.07-.01-.14-.02-.22-.02-.06,0-.13,0-.19.03-.06.02-.11.05-.14.09-.07.1-.07.23-.01.33.04.05.09.09.15.11.1.04.21.08.32.11.15.04.3.1.45.16.11.05.21.12.28.22.07.11.1.24.09.37,0,.15-.03.29-.1.42-.08.13-.19.23-.33.29-.18.07-.38.11-.58.1Z"/>
      <path class="cls-3" d="m30.24,22.45v-.43h1.84v.43h-1.84Zm.47,2.16v-2.89c0-.16.02-.33.08-.48.05-.12.12-.22.21-.3.09-.07.2-.13.31-.16.12-.03.25-.05.37-.05.07,0,.13,0,.2,0,.1,0,.21.03.3.06l-.04.47c-.06-.02-.12-.04-.18-.05-.06-.01-.13-.02-.2-.02-.18,0-.31.04-.4.13-.09.11-.14.25-.13.4v.3l.02.11v2.48h-.55Z"/>
      <path class="cls-3" d="m33.71,24.67c-.27.01-.54-.05-.78-.18-.2-.11-.36-.28-.45-.48-.19-.45-.2-.95,0-1.4.09-.2.23-.36.41-.48.38-.21.84-.23,1.24-.04.16.08.29.22.37.38.09.19.14.41.13.62,0,.07,0,.13,0,.18,0,.05,0,.11-.02.16l-.49-.21s0-.05,0-.08,0-.05,0-.07c.01-.18-.05-.36-.16-.5-.11-.12-.26-.18-.42-.18-.13,0-.25.04-.35.11-.1.08-.18.18-.23.3-.06.14-.08.29-.08.44v.08c0,.16.03.32.1.47.06.13.16.24.29.3.15.08.32.11.5.11.08,0,.17,0,.25-.02.09-.01.18-.03.27-.06.09-.03.18-.06.26-.11l.02.48c-.07.04-.15.07-.23.09-.1.03-.19.05-.29.06-.11.02-.23.03-.34.03Zm-1.16-1.25v-.38l1.72-.02.33.14v.26h-2.05Z"/>
      <path class="cls-3" d="m35.24,24.61v-2.59l.48-.03.02.51h.05c.05-.13.14-.25.24-.35.08-.07.17-.13.27-.16.08-.03.17-.04.26-.04.05,0,.09,0,.14.01.05,0,.09.02.14.03l-.05.55c-.06-.01-.12-.02-.16-.02s-.1,0-.17,0c-.05,0-.11,0-.16.02-.06.02-.12.04-.18.08-.07.05-.13.11-.17.18-.06.1-.11.2-.14.31v1.5h-.57Z"/>
    </g>
  </g>
</svg>