<?xml version="1.0" encoding="UTF-8"?>
<svg width="39" height="39" xmlns="http://www.w3.org/2000/svg" viewBox="0 0 39 39">
  <defs>
    <style>
      .cls-1 {
        fill: #fff;
      }

      .cls-1, .cls-2 {
        stroke-width: 0px;
      }

      .cls-2 {
        fill: #c2a633;
      }
    </style>
  </defs>
  <g id="_Слой_1" data-name="Слой 1">
    <circle class="cls-1" cx="19.5" cy="19.5" r="19.5"/>
  </g>
  <g id="_Слой_26" data-name="Слой 26">
    <g>
      <path class="cls-2" d="m19.97,12.85h-2.79v5.49h4.38v2.3h-4.38v5.49h2.92c.75,0,6.17.08,6.16-6.39,0-6.48-5.25-6.89-6.29-6.89Z"/>
      <path class="cls-2" d="m19.5,0C8.73,0,0,8.73,0,19.5s8.73,19.5,19.5,19.5,19.5-8.73,19.5-19.5S30.27,0,19.5,0Zm.77,30.03h-7.06v-9.39h-2.49v-2.3h2.49v-9.39h6.06c1.43,0,10.93-.3,10.93,10.71s-9.93,10.36-9.93,10.36h0Z"/>
    </g>
  </g>
</svg>