<?xml version="1.0" encoding="UTF-8"?>
<svg width="39" height="39" xmlns="http://www.w3.org/2000/svg" viewBox="0 0 39 39">
  <defs>
    <style>
      .cls-1 {
        fill: #083764;
      }

      .cls-1, .cls-2, .cls-3, .cls-4 {
        stroke-width: 0px;
      }

      .cls-2 {
        fill: #fcfdfa;
      }

      .cls-3 {
        fill: #8dc140;
      }

      .cls-4 {
        fill: #fff;
      }
    </style>
  </defs>
  <g id="_Слой_1" data-name="Слой 1">
    <circle class="cls-4" cx="19.5" cy="19.5" r="19.5"/>
  </g>
  <g id="_Слой_15" data-name="Слой 15">
    <g>
      <path class="cls-3" d="m3.78,18.77c.78-.66,1.72-.67,2.67-.62,1.19.07,2.41-.07,3.54.49,1.33.65,1.91,1.74,1.75,3.41-.12,1.31-1.03,2.35-2.32,2.72-.88.25-1.77.18-2.65.17-.41,0-.49.13-.49.51,0,.59.04,1.17-.06,1.77-.09.57-.37.89-.88,1.02-.56.14-1.02-.04-1.37-.51m2.32-6.15q0,1.31,1.31,1.28c.09,0,.18,0,.26-.01.39-.07.74-.22.96-.56.52-.8.07-1.79-.87-1.94-1.55-.24-1.66-.16-1.66,1.23Z"/>
      <path class="cls-3" d="m21.88,30.73c-.32-.58-.24-1.01.2-1.79.07-.12.1-.27.19-.37.71-.79.43-1.54,0-2.36-.66-1.26-1.24-2.57-1.83-3.86-.25-.54-.15-1.16.18-1.46.39-.35.99-.4,1.47-.15.29.15.41.42.53.69.42.97.84,1.95,1.25,2.93.05.13.1.26.28.39.34-.81.67-1.6,1.02-2.39.22-.49.33-1.03.74-1.42.43-.41.98-.49,1.48-.18.44.27.59.69.38,1.28-.54,1.51-1.31,2.92-1.97,4.37-.61,1.33-1.24,2.65-1.85,3.98-.1.21-.24.38-.39.55l-1.66-.19Z"/>
      <path class="cls-3" d="m35.13,21.58c-.34.5-.54.79-.73,1.02-1.29,1.57-1.99,2.31-2.47,2.88-.13.15-.38.32-.3.51.09.2.37.09.57.09.52,0,1.04-.02,1.57-.01,2.09.02,1.79,2.05,0,2.05-1.54,0-3.07,0-4.61,0-.4,0-.82-.02-1.01-.41-.21-.42,0-.79.3-1.13.97-1.12,1.92-2.24,2.88-3.37.11-.13.2-.28.3-.42-.22-.18-.46-.11-.67-.11-.61-.01-1.22.01-1.83-.02-.59-.03-.98-.45-1-1.01-.01-.44.37-.86.92-.9,1.79-.15,3.59-.13,5.38,0,.11.03.38.12.59.38.14.14.16.37.12.47Z"/>
      <path class="cls-3" d="m19.77,8.16s1.5.35,4.78,2.37c.03.02.11.07.14.17.02.05.02.11-.01.19-.83-.64-1.71-1.16-2.68-1.51-2.13-.77-4.33-.98-6.59-.82-2.29.17-4.4.87-6.21,2.22-2.11,1.58-2.91,4.03-1.19,6.35-.17.11-.25-.04-.34-.12-2.47-2.1-2.25-4.76.07-6.72,1.52-1.28,3.25-1.8,4.51-2.1.57-.14,1-.2,1.34-.24,1.09-.15,3.36-.45,6.2.21Z"/>
      <path class="cls-3" d="m19.95,24.44c0,.79,0,1.57,0,2.36,0,.61-.17,1.16-.79,1.4-.56.22-1.02-.02-1.4-.43-.15-.17-.27-.19-.43-.05-1.2,1.05-3.51.67-4.62-.84-1.58-2.14-.78-5.26,1.69-6.17.99-.36,2.02-.41,2.92.33.18.14.31.16.49-.03.39-.42.88-.56,1.42-.32.55.25.72.73.72,1.28,0,.82,0,1.64,0,2.46,0,0,0,0,0,0Zm-3.98-1.8c-.95-.02-1.51.71-1.57,1.66-.06,1.07.59,1.83,1.54,1.87.85.03,1.5-.7,1.53-1.71.03-1.09-.56-1.8-1.51-1.82Z"/>
      <path class="cls-1" d="m12.23,15.38s-.59.02-.89,0c-.34-.02-.35.14-.23.38.33.66.92.88,1.6.89.64.01,1.24-.18,1.82-.44.27-.12.54-.25.84-.27.77-.06,1.21.58.88,1.28-.14.29-.35.52-.63.69-1.56.96-3.98,1.15-5.66-.14-1.26-.96-1.79-2.58-1.33-4.12.47-1.59,1.88-2.71,3.58-2.83,1.6-.12,2.87.47,3.81,1.76.11.15.2.33.28.5.56,1.25.33,1.81-.94,2.29-.18,0-.7,0-.7,0h-.8s-1.62,0-1.62,0Zm.31-1.47c.4,0,.8-.02,1.2,0,.43.03.41-.17.27-.47-.25-.52-.85-.85-1.52-.82-.64.03-1.22.44-1.42.98-.09.24-.03.31.21.31.42-.01.84,0,1.25,0Z"/>
      <path class="cls-1" d="m27.78,18.66c-1.98.02-3.61-1.23-3.97-3.03-.4-1.98.53-3.81,2.32-4.53.48-.19.96-.26,1.51-.28s.98-.03,1.49.11c1.8.51,3.01,2.26,2.82,4.14-.2,2.03-1.63,3.44-3.64,3.59-.17.01-.35,0-.52,0Zm-1.51-3.82c0,.05,0,.25.04.43.13.66.62,1.16,1.23,1.26.7.12,1.26-.13,1.61-.7.42-.69.34-1.79-.17-2.41-.6-.73-1.73-.73-2.33,0-.3.37-.4.8-.39,1.4Z"/>
      <path class="cls-1" d="m21.06,10.8c.65,0,1.28.11,1.88.4.6.29.89.87.69,1.4-.18.48-.75.72-1.37.53-.47-.14-.93-.26-1.43-.25-.5,0-.87.21-1.15.61-.49.67-.5,1.74-.02,2.42.42.6,1.34.8,2.3.5.22-.07.42-.17.65-.18.46-.01.83.13,1.01.59.17.43.03.79-.29,1.09-.51.48-1.15.64-1.81.73-2.3.31-4.32-1.01-4.65-3.05-.45-2.78,1.31-4.77,4.2-4.76Z"/>
      <path class="cls-1" d="m12.23,15.38c.54-.07,1.08-.07,1.62,0"/>
      <path class="cls-2" d="m6.29,21.57c0-1.38.11-1.47,1.66-1.23.94.14,1.39,1.14.87,1.94-.22.34-.57.49-.96.56-.08.02-.17,0-.26.01q-1.31.03-1.31-1.28Z"/>
      <path class="cls-2" d="m15.98,22.63c.95.02,1.54.73,1.51,1.82-.03,1-.69,1.74-1.53,1.71-.95-.03-1.6-.8-1.54-1.87.06-.95.61-1.68,1.57-1.66Z"/>
      <path class="cls-2" d="m12.54,13.91c-.42,0-.84,0-1.25,0-.25,0-.31-.06-.21-.31.21-.54.78-.95,1.42-.98.66-.03,1.27.3,1.52.82.14.29.16.49-.27.47-.4-.02-.8,0-1.2,0Z"/>
      <path class="cls-2" d="m26.27,14.85c0-.6.09-1.03.39-1.4.59-.73,1.72-.74,2.33,0,.51.62.59,1.71.17,2.41-.35.57-.9.82-1.61.7-.61-.1-1.1-.6-1.23-1.26-.04-.19-.04-.38-.04-.43Z"/>
    </g>
    <ellipse class="cls-3" cx="22.8" cy="30.39" rx="1.02" ry=".8"/>
  </g>
</svg>