<?xml version="1.0" encoding="UTF-8"?>
<svg width="39" height="39" xmlns="http://www.w3.org/2000/svg" viewBox="0 0 39 39">
  <defs>
    <style>
      .cls-1 {
        fill: #8c8c8c;
      }

      .cls-1, .cls-2, .cls-3, .cls-4, .cls-5, .cls-6 {
        stroke-width: 0px;
      }

      .cls-2 {
        fill: #393939;
      }

      .cls-3 {
        fill: #141414;
      }

      .cls-4 {
        fill: #343434;
      }

      .cls-5 {
        fill: #3c3c3b;
      }

      .cls-6 {
        fill: #fff;
      }
    </style>
  </defs>
  <g id="_Слой_1" data-name="Слой 1">
    <circle class="cls-6" cx="19.5" cy="19.5" r="19.5"/>
  </g>
  <g id="_Слой_27" data-name="Слой 27">
    <g id="Layer_1">
      <g id="_1421394342400" data-name=" 1421394342400">
        <g>
          <polygon class="cls-4" points="19.5 1.36 19.25 2.19 19.25 26.17 19.5 26.42 30.63 19.84 19.5 1.36"/>
          <polygon class="cls-1" points="19.5 1.36 8.36 19.84 19.5 26.42 19.5 14.78 19.5 1.36"/>
          <polygon class="cls-5" points="19.5 28.53 19.36 28.69 19.36 37.24 19.5 37.64 30.64 21.95 19.5 28.53"/>
          <polygon class="cls-1" points="19.5 37.64 19.5 28.53 8.36 21.95 19.5 37.64"/>
          <polygon class="cls-3" points="19.5 26.42 30.63 19.84 19.5 14.78 19.5 26.42"/>
          <polygon class="cls-2" points="8.36 19.84 19.5 26.42 19.5 14.78 8.36 19.84"/>
        </g>
      </g>
    </g>
  </g>
</svg>