<?xml version="1.0" encoding="UTF-8"?>
<svg width="39" height="39" xmlns="http://www.w3.org/2000/svg" viewBox="0 0 39 39">
  <defs>
    <style>
      .cls-1 {
        fill: #4d4d4d;
      }

      .cls-1, .cls-2, .cls-3 {
        stroke-width: 0px;
      }

      .cls-2 {
        fill: #fff;
      }

      .cls-3 {
        fill: #03c5d3;
      }
    </style>
  </defs>
  <g id="_Слой_1" data-name="Слой 1">
    <circle class="cls-2" cx="19.5" cy="19.5" r="19.5"/>
  </g>
  <g id="_Слой_19" data-name="Слой 19">
    <g>
      <path class="cls-1" d="m21.23,25.59c-.6,0-1.05-.3-1.18-.82-.12.52-.57.82-1.17.82-.99,0-1.48-.65-1.48-1.54v-2.64h.96v2.7c0,.43.15.71.6.71s.6-.28.61-.71v-2.7h.96v2.7c0,.43.18.71.61.71s.6-.28.6-.71v-2.7h.96v2.64c0,.88-.49,1.54-1.48,1.54Zm4.38-.06v-.29c-.23.25-.6.36-.94.36-.63,0-1.25-.39-1.25-1.09,0-.75.59-1.02,1.29-1.02h.9v-.11c0-.52-.44-.57-.83-.57-.32-.01-.64.06-.93.19l-.23-.62c.16-.08.61-.31,1.37-.31.85,0,1.59.5,1.59,1.34v2.12h-.96Zm0-1.49h-.66c-.36,0-.57.13-.57.4s.22.42.48.42c.48,0,.75-.28.75-.44v-.38h0Zm1.81,1.49v-4.86h.95v4.86h-.95Zm1.82,0v-4.86h.95v4.86h-.95Zm2.59-1.4v.06c0,.51.39.67.8.67.38-.01.76-.1,1.1-.27l.27.65c-.46.23-.97.35-1.49.35-.95,0-1.65-.59-1.65-1.47v-.59c0-.89.69-1.47,1.65-1.47s1.66.59,1.66,1.47v.58s-2.34.01-2.34.01Zm.68-1.33c-.33,0-.68.14-.68.71h1.38c0-.57-.36-.71-.7-.71h0Zm4.2,2.73c-.83,0-1.52-.5-1.52-1.24v-1.39h-.6v-.76h.6v-1.04h.96v1.04h.95v.77h-.95v1.44c0,.25.23.42.56.42h.39v.77h-.38s0,0,0,0Z"/>
      <path class="cls-3" d="m2.86,24.12v.06c0,.51.39.67.8.67s.81-.13,1.1-.27l.27.65c-.46.23-.97.35-1.49.35-.96,0-1.65-.59-1.65-1.47v-.59c0-.89.69-1.47,1.65-1.47s1.66.59,1.66,1.47v.59s-2.34,0-2.34,0Zm.69-1.33c-.33,0-.69.14-.69.71h1.38c0-.57-.35-.71-.69-.71Zm2.18,2.73v-.6l1.95-2.74h-1.8v-.77h3.05v.6l-1.97,2.74h2.06v.77s-3.3,0-3.3,0Zm4.82-1.4v.06c0,.51.39.67.8.67s.81-.13,1.1-.27l.27.65c-.46.23-.97.35-1.49.35-.96,0-1.65-.59-1.65-1.47v-.59c0-.89.69-1.47,1.65-1.47s1.66.59,1.66,1.47v.59s-2.34,0-2.34,0Zm.69-1.33c-.33,0-.69.14-.69.71h1.38c0-.57-.35-.71-.69-.71Zm3.11,1.33v.06c0,.51.39.67.8.67.38-.01.76-.1,1.1-.27l.27.65c-.46.23-.97.35-1.48.35-.96,0-1.65-.59-1.65-1.47v-.59c0-.89.69-1.47,1.65-1.47s1.66.59,1.66,1.47v.59s-2.34,0-2.34,0Zm.69-1.33c-.33,0-.69.14-.69.71h1.38c0-.57-.36-.71-.69-.71Zm7.2-5.88v.8h-3.11c-.21,0-.4-.19-.4-.41,0-.21.17-.39.39-.39h3.12Zm-3.11-1.59c-.21,0-.41.19-.41.41s.18.4.4.4h3.12s0-.81,0-.81c0,0-3.11,0-3.11,0Zm-.62,3.15c-.46,0-.83-.18-.83-.76,0-.77.75-.55.75-1.19s-.77-.41-.77-1.17c0-.58.39-.78.85-.78h4.1v-1.16h-4.28c-1.04,0-1.9.56-1.9,1.73,0,.99.74.99.74,1.38s-.78.38-.78,1.37c0,1.17.92,1.73,1.96,1.73h4.28v-1.14h-4.12Z"/>
    </g>
  </g>
</svg>