<?xml version="1.0" encoding="UTF-8"?>
<svg width="39" height="39" xmlns="http://www.w3.org/2000/svg" viewBox="0 0 39 39">
  <defs>
    <style>
      .cls-1 {
        fill: #be2631;
      }

      .cls-1, .cls-2, .cls-3 {
        stroke-width: 0px;
      }

      .cls-2 {
        fill: #fff;
      }

      .cls-3 {
        fill: #444;
      }
    </style>
  </defs>
  <g id="_Слой_1" data-name="Слой 1">
    <circle class="cls-2" cx="19.5" cy="19.5" r="19.5"/>
  </g>
  <g id="_Слой_20" data-name="Слой 20">
    <g>
      <path class="cls-1" d="m20.62,19.26c.05.15-.05.35.19.25.64-.15,1.14-.54,1.38-1.14.1-.25.05-.49-.15-.64-.15-.15-.35-.05-.54,0-.15.05-.29.15-.39.29-.29.4-.44.84-.49,1.24m3.79.3v1.53c-.59.39-1.14.84-1.82,1.08-.49.15-.94.29-1.48.19-1.08-.15-1.82-.89-1.92-1.97-.1-1.18.19-2.26.98-3.2.49-.59,1.14-.84,1.92-.69.94.15,1.48,1.08,1.14,1.97-.39.98-1.18,1.58-2.16,1.92-.29.1-.35.15-.1.39.15.25.39.29.64.25.84-.1,1.53-.49,2.22-.98.19-.16.39-.31.59-.5"/>
      <path class="cls-3" d="m1.85,16.88c.29-.05.59-.19.89-.29.1-.05.1-.15.1-.19,0-.29,0-.59.05-.89.15-.79.69-1.23,1.68-1.33.44-.05.94.05,1.38.15.1.05.19.05.1.19-.1.19-.15.39-.25.64-.05.15-.1.15-.25.1-.15-.05-.35-.1-.54-.1-.54,0-.74.15-.89.69-.15.64-.1.69.54.69h.1q.84,0,.74.84c0,.15-.05.15-.15.15h-.98c-.19,0-.29.05-.29.29v4.29c0,.19-.05.29-.25.25h-.79c-.15-.05-.19-.15-.19-.29v-4.33c0-.19-.05-.29-.25-.25h-.74s0-.59,0-.59Zm35.22,5.36h-1.04c-.15,0-.19-.05-.19-.19v-3.25c0-.15,0-.29-.05-.44-.1-.59-.39-.89-.98-.94-.79-.05-1.38.35-1.53,1.14-.05.29-.05.59-.05.94v2.51c0,.19-.05.25-.25.25h-.79c-.15,0-.19-.05-.19-.19v-5.38c0-.15.05-.19.19-.19.25,0,.59-.1.74.05.15.15.15.44.25.74.35-.44.79-.69,1.28-.84.49-.1,1.04-.1,1.53.1.64.19.98.69,1.08,1.33,0,.05-.05.15.05.15v.15c-.1.1-.05.19-.05.29v3.79h-.01Zm.02,0v-3.79c0-.1-.05-.19.05-.29l-.05,4.09s0,0,0,0m-11.44,2.54v.05h-1.23v-.05h1.23Zm.04-5.39c0,.19.05.49.05.74,0,.15.05.25.1.39.15.49.49.79,1.08.79.64.05.98-.15,1.28-.69.19-.39.25-.84.25-1.23,0-.44-.05-.94-.25-1.33-.25-.44-.69-.69-1.23-.64-.54.05-.94.25-1.14.84-.15.34-.15.69-.15,1.13m-.05,5.37h-1.23v-8.03c0-.19.05-.25.25-.25.25.05.59-.1.74.05s.15.44.19.69c.1-.05.15-.15.19-.19.79-.94,2.91-.98,3.59.69.39,1.08.39,2.22,0,3.3-.69,1.72-2.86,1.62-3.65.64l-.15-.15c.11,1.14.05,2.22.05,3.25m-6.45-2.51h-1.28c-.15,0-.19-.1-.25-.15-.44-.64-.84-1.28-1.28-1.97-.39.64-.84,1.23-1.23,1.82-.15.19-.29.29-.54.29-.35-.05-.69,0-1.08,0,.25-.39.49-.69.74-1.04.39-.59.74-1.14,1.14-1.68.15-.19.1-.29,0-.44-.59-.84-1.18-1.68-1.82-2.56h1.38c.1,0,.1.1.15.15.35.54.74,1.08,1.08,1.68.05.05.1.1.15.19.39-.59.84-1.23,1.18-1.82.1-.15.19-.19.35-.19h1.14c.05.1-.05.19-.1.25-.54.79-1.14,1.62-1.68,2.41-.1.15-.1.19,0,.35l1.77,2.51c.05,0,.1.09.2.19m-8.28-3.49h1.14s.15.05.15-.1c.05-.54-.35-1.14-.89-1.23-.84-.25-1.62.29-1.72,1.18,0,.15,0,.19.15.19.39-.05.79-.05,1.18-.05m2.26,2.21v.89c0,.1-.05.15-.15.15-1.04.39-2.12.49-3.2.1-.84-.35-1.33-1.04-1.48-1.92-.15-.94-.1-1.82.44-2.66.49-.84,1.33-1.14,2.26-1.08.89,0,1.58.35,2.07,1.08.29.49.35.98.35,1.53q0,.64-.64.64h-3.01c-.19,0-.25.05-.19.25.19,1.14.89,1.62,2.07,1.48.44-.05.89-.15,1.28-.35.04-.05.09-.1.19-.1m18.33-1.62v2.66c0,.15-.05.19-.19.19h-.84c-.1,0-.19,0-.19-.15v-5.42c0-.15.05-.15.19-.15h.84c.19,0,.19.05.19.19v2.66m-23.65-1.14v3.79c0,.19-.05.25-.25.25h-.74c-.25,0-.29-.05-.29-.25v-7.58c0-.19.05-.25.25-.25h.79c.19,0,.25.05.25.25-.05,1.28,0,2.51,0,3.79m23.05-2.56c-.44,0-.69-.25-.74-.64,0-.44.25-.69.69-.69s.69.25.69.69c.05.39-.19.64-.64.64Z"/>
    </g>
  </g>
</svg>