<?xml version="1.0" encoding="UTF-8"?>
<svg width="39" height="39" xmlns="http://www.w3.org/2000/svg" viewBox="0 0 39 39">
  <defs>
    <style>
      .cls-1 {
        fill: #fc0020;
      }

      .cls-1, .cls-2, .cls-3 {
        stroke-width: 0px;
      }

      .cls-2 {
        fill: #fff;
      }

      .cls-3 {
        fill: #fb001f;
      }
    </style>
  </defs>
  <g id="_Слой_1" data-name="Слой 1">
    <circle class="cls-2" cx="19.5" cy="19.5" r="19.5"/>
  </g>
  <g id="_Слой_30" data-name="Слой 30">
    <g>
      <path class="cls-1" d="m3.42,21.32c0,.96-.01,1.85,0,2.74,0,.29-.06.41-.38.39-.5-.03-1.01-.02-1.52,0-.22,0-.3-.06-.3-.29,0-3.19,0-6.38,0-9.56,0-.24.09-.29.31-.28.48.01.95.03,1.43,0,.35-.02.47.07.46.44-.02,1.75,0,3.49,0,5.24,0,.14,0,.28,0,.5.37-.31.57-.66.82-.96.45-.54.78-1.3,1.36-1.59.56-.28,1.36-.07,2.05-.08.14,0,.29,0,.43,0,.02.2-.13.27-.21.37-.67.79-1.34,1.59-2.03,2.37-.17.19-.16.31-.01.51.73.96,1.45,1.94,2.17,2.91.08.11.16.23.3.42-.9,0-1.72,0-2.55,0-.18,0-.22-.17-.3-.28-.56-.82-1.12-1.65-1.68-2.47-.08-.12-.13-.26-.34-.37Z"/>
      <path class="cls-3" d="m12.77,21.77c-.66,0-1.33,0-1.99,0-.41,0-.47.12-.26.48.45.8,1.82,1.02,2.55.36.28-.26.46-.23.72-.03.23.17.47.34.73.46.34.17.35.31.1.59-1.01,1.09-2.92,1.39-4.46.68-1.36-.63-2.03-2-1.85-3.57.3-2.61,2.92-3.55,4.85-2.83,1.26.48,1.82,1.49,1.97,2.77.13,1.09.11,1.09-.96,1.09-.46,0-.92,0-1.39,0Zm-1.04-1.36c.35,0,.69-.02,1.04,0,.36.03.43-.12.33-.43-.18-.58-.67-.87-1.4-.82-.62.04-1.18.47-1.29.98-.04.19,0,.27.2.27.37,0,.75,0,1.12,0Z"/>
      <path class="cls-1" d="m29.58,18.78c.5-.7,1.08-1.03,1.79-1.08,1.43-.11,2.42.72,2.55,2.16.12,1.44.03,2.88.05,4.33,0,.17-.04.27-.24.27-.55,0-1.1-.01-1.65,0-.29,0-.24-.18-.24-.35,0-1.04,0-2.08,0-3.12,0-.23-.01-.46-.07-.69-.13-.52-.37-.77-.82-.82-.47-.06-.88.15-1.11.58-.13.25-.17.51-.17.79,0,1.07-.01,2.14,0,3.2,0,.33-.1.42-.42.4-.49-.03-.98-.02-1.47,0-.22,0-.3-.07-.3-.29,0-2.01,0-4.01,0-6.02,0-.24.09-.29.31-.29.46.01.93.02,1.39,0,.33-.02.45.09.4.41-.02.12,0,.25,0,.51Z"/>
      <path class="cls-3" d="m19.21,22.14c.44-1.37.87-2.64,1.26-3.92.09-.28.2-.39.51-.37.53.03,1.07.02,1.6,0,.25,0,.3.07.21.3-.79,2.01-1.58,4.02-2.37,6.04-.08.19-.18.26-.38.26-.59-.01-1.18-.01-1.78,0-.2,0-.31-.06-.38-.25-.78-2.01-1.57-4.03-2.36-6.04-.12-.29,0-.31.23-.31.56,0,1.13.02,1.69,0,.28-.01.4.09.48.36.38,1.21.77,2.41,1.17,3.62.02.07.05.13.12.32Z"/>
      <path class="cls-1" d="m23.69,21.15c0-.97.02-1.93,0-2.9,0-.33.1-.42.42-.4.48.03.95.02,1.43,0,.25,0,.35.05.35.33-.01,1.98-.01,3.95,0,5.93,0,.27-.09.35-.35.34-.48-.02-.95-.03-1.43,0-.37.03-.42-.13-.42-.44.02-.95,0-1.9,0-2.86Z"/>
      <path class="cls-3" d="m24.79,16.93c-.75,0-1.3-.57-1.29-1.33.01-.72.59-1.29,1.3-1.29.72,0,1.32.63,1.31,1.34-.02.72-.59,1.28-1.32,1.27Z"/>
      <path class="cls-3" d="m36.47,24.55c-.74,0-1.33-.59-1.32-1.32.01-.71.6-1.29,1.31-1.29.73,0,1.32.6,1.31,1.33,0,.72-.58,1.28-1.3,1.28Z"/>
    </g>
  </g>
</svg>