<?xml version="1.0" encoding="UTF-8"?>
<svg width="39" height="39" id="_Слой_28" data-name="Слой 28" xmlns="http://www.w3.org/2000/svg" viewBox="0 0 39 39">
  <defs>
    <style>
      .cls-1 {
        fill: #fff;
      }

      .cls-1, .cls-2 {
        stroke-width: 0px;
      }

      .cls-2 {
        fill: #345d9d;
      }
    </style>
  </defs>
  <circle class="cls-1" cx="19.5" cy="19.5" r="17.39" transform="translate(-.12 .12) rotate(-.34)"/>
  <path class="cls-2" d="m19.5,0C8.73,0,0,8.73,0,19.5s8.73,19.5,19.5,19.5,19.5-8.73,19.5-19.5h0C39.03,8.76,30.35.03,19.61,0c0,0,0,0,0,0h-.11Zm.33,20.16l-2.03,6.85h10.86c.3-.01.56.23.57.53,0,0,0,0,0,0v.18l-.94,3.26c-.09.32-.38.53-.71.52H10.95l2.79-9.49-3.12.94.71-2.17,3.12-.94,3.92-13.31c.09-.32.38-.53.71-.52h4.2c.3-.01.56.23.57.53h0v.18l-3.31,11.24,3.12-.94-.66,2.27-3.16.9Z"/>
</svg>