<?xml version="1.0" encoding="UTF-8"?>
<svg width="39" height="39" xmlns="http://www.w3.org/2000/svg" viewBox="0 0 39 39">
  <defs>
    <style>
      .cls-1 {
        fill: #f39;
      }

      .cls-1, .cls-2 {
        stroke-width: 0px;
      }

      .cls-2 {
        fill: #fff;
      }
    </style>
  </defs>
  <g id="_Слой_1" data-name="Слой 1">
    <circle class="cls-2" cx="19.5" cy="19.5" r="19.5"/>
  </g>
  <g id="_Слой_23" data-name="Слой 23">
    <path class="cls-1" d="m1.87,23.45v-6.62c0-.6.47-1.03,1.1-1.03s1,.25,1.29.79l1.66,3.31h.02v-3.98h1.86v6.56c0,.69-.52,1.1-.99,1.1s-.83-.22-1.33-1.18l-1.73-3.36h-.02v4.41h-1.87Zm9.33-2.07l-.7-1.12,1.5-1c-.28-.18-.49-.2-.71-.2-.75,0-1.16.78-1.16,1.45s.49,1.43,1.23,1.43c.69,0,1.36-.62,1.63-1.27l1.31.69c-.52,1.28-1.69,2.21-3.07,2.21-1.53,0-2.87-1.34-2.87-2.96s1.33-2.96,2.87-2.96c1.28,0,2.12.7,2.72,1.8l-2.76,1.93Zm4.87-.77c0-.65.47-1.2,1.11-1.2s1.11.55,1.11,1.2-.47,1.2-1.11,1.2-1.11-.55-1.11-1.2h0Zm-1.76,0c0,1.63,1.34,2.96,2.87,2.96s2.87-1.34,2.87-2.96-1.34-2.96-2.87-2.96-2.87,1.33-2.87,2.96Zm6.12,1.22h1.73c.21,0,.32-.11.32-.25,0-.53-1.99-.33-1.99-2.17,0-1.05.9-1.58,1.76-1.58h1.75v1.49h-1.41c-.21,0-.37.11-.37.26,0,.45,2.1.56,2.1,2.06,0,1.13-.7,1.75-1.88,1.75h-2.02v-1.55h0Zm6.23-.79c0,.48.24.78.63.78s.63-.3.63-.78v-3.21h1.78v3.21c0,1.45-.84,2.54-2.42,2.54s-2.42-1.08-2.42-2.54v-3.21h1.78v3.21h0Zm5.17-2.28h.02c.27-.79.79-.93,1.57-.93v1.67c-1.25.05-1.36.32-1.36,1.28v2.61h-1.8v-5.56h1.56v.93Zm1.97,4.63v-5.97c0-1.15.89-2,2.3-2h1.03v1.66h-.87c-.47,0-.59.26-.59.73h1.09v1.66h-1.09v3.91h-1.88Z"/>
  </g>
</svg>