<?xml version="1.0" encoding="utf-8"?>
<!-- Generator: Adobe Illustrator 28.0.0, SVG Export Plug-In . SVG Version: 6.00 Build 0)  -->
<svg width="39" height="39" version="1.1" xmlns="http://www.w3.org/2000/svg" xmlns:xlink="http://www.w3.org/1999/xlink" x="0px" y="0px"
	 viewBox="0 0 39 39" style="enable-background:new 0 0 39 39;" xml:space="preserve">
<style type="text/css">
	.st0{display:none;}
	.st1{display:inline;fill:#C9C9C9;}
	.st2{fill:#FFFFFF;}
	.st3{display:inline;}
	.st4{fill:#CB0102;}
	.st5{fill:#FD9800;}
	.st6{fill:#0C0966;}
	.st7{fill:#0258A0;}
	.st8{fill:url(#SVGID_1_);}
	.st9{fill:#2E9DD2;}
	.st10{fill:#309ED3;}
	.st11{fill:#35A0D4;}
	.st12{fill:url(#SVGID_00000064313500238976451530000004619928162851126939_);}
	.st13{fill:url(#SVGID_00000166672331890368180230000010479060184447223698_);}
	.st14{fill:#0A83A2;}
	.st15{fill:url(#SVGID_00000163032315535277392270000012648977740973668272_);}
	.st16{fill:#356795;}
	.st17{fill:#356A97;}
	.st18{display:inline;fill:#EF809F;}
	.st19{fill:#83BA3B;}
	.st20{fill:#008AC9;}
	.st21{fill:#E3001B;}
</style>
<g id="Слой_2" class="st0">
	<rect x="-0.55" y="-0.33" class="st1" width="40.44" height="40.04"/>
</g>
<g id="Слой_1">
	<g>
		<circle class="st2" cx="19.5" cy="19.5" r="19.5"/>
	</g>
</g>
<g id="Слой_3" class="st0">
	<g class="st3">
		<g>
			<path class="st4" d="M13.43,29.07c-0.24,0-0.48,0-0.72,0c-0.08-0.05-0.17-0.03-0.26-0.03c-0.29-0.03-0.58-0.06-0.87-0.09
				c-0.22-0.04-0.43-0.09-0.65-0.13c-0.42-0.09-0.83-0.24-1.24-0.36c-0.22-0.1-0.44-0.19-0.67-0.29c-0.07-0.03-0.14-0.06-0.22-0.1
				c-0.15-0.11-0.31-0.18-0.48-0.26c-0.45-0.27-0.88-0.57-1.3-0.89c-0.06-0.05-0.12-0.1-0.18-0.15c-0.14-0.13-0.29-0.26-0.43-0.39
				c-0.03-0.06-0.08-0.1-0.14-0.13c-0.17-0.19-0.34-0.38-0.51-0.56c-0.05-0.06-0.1-0.12-0.15-0.18c-0.32-0.43-0.63-0.87-0.9-1.34
				c-0.08-0.15-0.16-0.29-0.24-0.44c-0.03-0.07-0.06-0.14-0.1-0.21c-0.08-0.19-0.16-0.38-0.24-0.57c-0.15-0.44-0.31-0.88-0.41-1.34
				c-0.04-0.22-0.09-0.43-0.13-0.65c-0.03-0.29-0.06-0.58-0.09-0.86c0.01-0.09,0.03-0.19-0.03-0.27c0-0.22,0-0.45,0-0.67
				c0.07-0.26,0.02-0.53,0.07-0.79c0.03-0.24,0.07-0.49,0.1-0.73c0.04-0.16,0.08-0.32,0.11-0.48c0.02-0.07,0.06-0.14,0.05-0.22
				c0.05-0.17,0.11-0.34,0.16-0.52c0.08-0.22,0.16-0.43,0.24-0.65c0.21-0.44,0.43-0.88,0.68-1.3c0.07-0.12,0.14-0.23,0.22-0.35
				c0.09-0.09,0.16-0.19,0.22-0.3c0.09-0.11,0.18-0.22,0.27-0.33c0.6-0.74,1.3-1.37,2.07-1.92c0.15-0.1,0.29-0.19,0.44-0.29
				c0.08-0.05,0.17-0.1,0.25-0.15c0.22-0.11,0.44-0.23,0.66-0.34c0.14-0.06,0.28-0.12,0.43-0.18c0.07,0,0.13-0.03,0.18-0.07
				c0.22-0.08,0.43-0.16,0.65-0.23c0.19-0.05,0.38-0.09,0.57-0.14c0.4-0.07,0.81-0.14,1.21-0.21c0.1-0.01,0.21,0.03,0.31-0.03
				c0.46,0,0.91,0,1.37,0c0.09,0.05,0.18,0.03,0.27,0.03c0.5,0.04,0.99,0.15,1.47,0.26c0.2,0.06,0.41,0.12,0.61,0.17
				c0.47,0.18,0.94,0.36,1.38,0.59c0.43,0.24,0.84,0.5,1.25,0.77c0.07,0.06,0.15,0.11,0.22,0.17c0.13,0.1,0.23,0.22,0.38,0.3
				c0.05,0.06,0.1,0.11,0.15,0.17c-0.29,0.33-0.65,0.61-0.91,1c0.59,0,1.15,0,1.71,0c0.07,0,0.15-0.03,0.2,0.04
				c0.24,0.31,0.49,0.61,0.69,0.99c-0.11,0-0.19,0-0.26,0c-0.98,0-1.96,0-2.95,0c-0.08,0-0.17-0.02-0.22,0.06
				c-0.17,0.3-0.34,0.6-0.48,0.94c0.09,0,0.16,0,0.23,0c1.34,0,2.69,0,4.03,0c0.15,0,0.24,0.03,0.29,0.19
				c0.07,0.2,0.16,0.38,0.24,0.58c0.1,0.26,0.09,0.27-0.19,0.27c-1.6,0-3.21,0-4.81,0c-0.17,0-0.25,0.03-0.29,0.22
				c-0.06,0.26-0.15,0.52-0.2,0.79c-0.25,0-0.49,0.02-0.74-0.01c-0.23-0.02-0.34,0.05-0.35,0.28c-0.25-0.07-0.27,0.11-0.29,0.27
				c-0.13,0.8-0.27,1.6-0.4,2.4c-0.11-0.32-0.31-0.56-0.62-0.7c-0.14-0.06-0.28-0.14-0.42-0.22c-0.11-0.06-0.19-0.15-0.15-0.3
				c0.22,0.02,0.44-0.01,0.66,0.03c0.31,0.06,0.32,0.04,0.32-0.28c0.22,0.05,0.33-0.03,0.31-0.27c-0.01-0.08,0.03-0.15,0.04-0.23
				c0.05-0.39,0.06-0.41-0.33-0.44c-0.74-0.07-1.48-0.07-1.98,0.63c-0.19,0.07-0.22,0.27-0.33,0.4c-0.06-0.58-0.33-0.9-0.91-1.02
				c-0.5-0.1-0.98-0.03-1.47,0.09c-0.18,0.04-0.28,0.12-0.28,0.3c-0.14,0-0.26,0.02-0.28,0.19c-0.03,0.19-0.06,0.38-0.09,0.57
				c-0.02,0.13-0.01,0.19,0.14,0.14c0.4-0.13,0.82-0.15,1.23-0.11c0.16,0.02,0.34,0.04,0.34,0.27c-0.17,0.01-0.34,0.01-0.51,0.03
				c-0.55,0.05-0.99,0.29-1.31,0.74c-0.19,0.07-0.22,0.28-0.34,0.41c0-0.06,0-0.12,0.01-0.17c0.17-1.05,0.35-2.11,0.53-3.16
				c0.03-0.15-0.01-0.16-0.14-0.16c-0.38,0.01-0.77,0.02-1.15,0c-0.22-0.01-0.37,0.03-0.4,0.27c-0.2-0.02-0.3,0.07-0.33,0.27
				c-0.02,0.13-0.08,0.26-0.13,0.39c-0.15,0.38-0.22,0.78-0.42,1.14C6.69,19.16,6.73,19.07,6.73,19c-0.01-0.55-0.01-1.11-0.01-1.66
				c0-0.14-0.03-0.19-0.18-0.18c-0.35,0.01-0.71,0.02-1.06,0c-0.24-0.02-0.32,0.07-0.33,0.28c-0.23-0.06-0.27,0.09-0.3,0.27
				c-0.14,0.84-0.28,1.68-0.42,2.52c-0.11,0.66-0.21,1.31-0.32,1.97c-0.02,0.11,0.01,0.12,0.1,0.12c0.18-0.01,0.36-0.02,0.54,0
				c0.23,0.03,0.36-0.05,0.36-0.29c0.26,0.05,0.27-0.13,0.3-0.31c0.09-0.56,0.2-1.13,0.29-1.69c0.02,0.64,0.04,1.28,0.05,1.92
				c0.01,0.36,0,0.35,0.37,0.36c0.23,0.01,0.44,0.02,0.46-0.29c0.15,0.02,0.23-0.04,0.26-0.2c0.04-0.17,0.11-0.32,0.17-0.48
				c0.21-0.54,0.37-1.1,0.6-1.63c0,0.02,0.01,0.04,0,0.06c-0.13,0.78-0.25,1.55-0.38,2.33c-0.02,0.15-0.02,0.23,0.17,0.21
				c0.18-0.02,0.36-0.02,0.54,0c0.23,0.03,0.37-0.03,0.36-0.29c0.09-0.05,0.24,0.08,0.27-0.11c0.03-0.2,0.06-0.41,0.1-0.61
				c0.06,0.05,0.03,0.12,0.03,0.18c0.03,0.49,0.43,0.86,0.92,0.87c0.41,0.01,0.75-0.12,1.06-0.4c0.06,0.34,0.06,0.34,0.41,0.34
				c0.06,0,0.13-0.01,0.19,0c0.24,0.05,0.32-0.07,0.32-0.29c0.07,0,0.14,0,0.22,0c-0.03,0.17,0.01,0.26,0.21,0.28
				c0.41,0.05,0.83,0.09,1.24,0.04c0.37-0.04,0.73-0.13,0.97-0.47c0.13-0.1,0.25-0.21,0.35-0.34c0.02,0.07,0.04,0.14,0.05,0.21
				c0.06,0.35,0.31,0.58,0.66,0.61c0.25,0.02,0.49-0.01,0.73-0.07c0.14-0.03,0.2-0.1,0.17-0.24c0,0,0,0.01,0,0.01
				c0.01-0.01,0.02-0.02,0.04-0.03c0.2-0.01,0.29-0.12,0.3-0.32c0.01-0.15,0.04-0.29,0.07-0.44c0.21,0.64,0.67,1,1.33,1.08
				c0.39,0.05,0.79,0.02,1.18-0.07c0.17-0.04,0.3-0.09,0.3-0.29c0.08-0.05,0.23-0.01,0.26-0.14c0.06-0.29,0.1-0.58,0.16-0.9
				c-0.06,0.02-0.1,0.04-0.13,0.05c-0.42,0.15-0.85,0.26-1.31,0.15c-0.26-0.06-0.47-0.19-0.52-0.47c0.49,0,0.98-0.02,1.46,0
				c0.25,0.01,0.34-0.08,0.34-0.3c0.21,0.05,0.28-0.08,0.3-0.26c0.03-0.19,0.04-0.38,0.06-0.58c0.11-1.04-0.72-1.76-1.74-1.52
				c-0.48,0.11-0.81,0.43-1.1,0.79c-0.07,0.01-0.1,0.05-0.14,0.1c-0.46,0.66-0.6,1.39-0.47,2.17c-0.4,0.1-0.73-0.01-0.56-0.49
				c0-0.01,0-0.03,0-0.04c0.08-0.41,0.11-0.82,0.22-1.23c0.19-0.02,0.44,0.04,0.4-0.29c0.08-0.01,0.17-0.01,0.18-0.13
				c0.03-0.24,0.07-0.47,0.1-0.7c0.01-0.09,0-0.13-0.11-0.12c-0.13,0.01-0.26,0-0.4,0c0.04-0.21,0.08-0.41,0.12-0.6
				c1.78,0,3.57,0,5.35,0c0.56,0,0.56,0,0.6,0.56c-0.47-0.06-0.71,0.26-0.95,0.59c-0.04-0.12,0.02-0.22,0.03-0.31
				c0.02-0.17-0.01-0.27-0.22-0.24c-0.13,0.02-0.27,0.02-0.41,0c-0.22-0.03-0.37,0.02-0.37,0.27c-0.27-0.06-0.28,0.13-0.3,0.31
				c-0.06,0.67-0.18,1.33-0.28,2c-0.08,0.49-0.16,0.99-0.24,1.48c-0.02,0.13,0,0.19,0.16,0.18c0.18-0.02,0.36-0.02,0.54,0
				c0.22,0.02,0.39-0.01,0.37-0.29c0.09-0.05,0.25,0.08,0.27-0.12c0.03-0.21,0.05-0.41,0.09-0.62c0.1-0.56,0.16-1.13,0.35-1.67
				c0.12-0.09,0.25-0.14,0.39-0.16c0.13-0.01,0.17,0.01,0.14,0.16c-0.11,0.69-0.07,1.37,0.29,2c0.01,0.15-0.06,0.28-0.09,0.42
				c-0.12,0.49-0.12,0.49-0.62,0.49c-1.52,0-3.05,0-4.57,0c-0.25,0-0.26,0.01-0.17,0.25c0.07,0.19,0.17,0.37,0.23,0.56
				c0.05,0.17,0.14,0.2,0.3,0.2c1.34-0.01,2.69,0,4.03,0c0.07,0,0.16-0.03,0.24,0.03c-0.11,0.27-0.26,0.51-0.39,0.77
				c-0.09,0.19-0.22,0.24-0.42,0.24c-0.96-0.01-1.92-0.01-2.88,0c-0.06,0-0.13-0.03-0.18,0.03c0.16,0.27,0.35,0.52,0.54,0.78
				c0.09,0.13,0.19,0.2,0.35,0.19c0.3-0.01,0.61,0,0.91,0c0.26,0,0.51,0,0.81,0c-0.31,0.39-0.61,0.71-0.94,1
				c-0.26,0.21-0.51,0.43-0.77,0.64c-0.11,0.06-0.21,0.13-0.3,0.22c-0.12,0.07-0.23,0.15-0.35,0.22c-0.42,0.25-0.87,0.46-1.31,0.67
				c-0.22,0.08-0.43,0.16-0.65,0.24c-0.17,0.06-0.34,0.11-0.52,0.17c-0.08-0.01-0.15,0.03-0.22,0.05c-0.16,0.04-0.32,0.08-0.48,0.11
				c-0.23,0.03-0.46,0.07-0.69,0.1C13.96,29.04,13.69,29.01,13.43,29.07z"/>
			<path class="st5" d="M29.79,28.26c-0.22,0.09-0.43,0.17-0.65,0.26c-0.46,0.13-0.93,0.25-1.39,0.38c-0.2,0.03-0.4,0.06-0.6,0.09
				c-0.19,0.02-0.38,0.03-0.57,0.05c-0.25,0.01-0.49,0.03-0.74,0.04c-0.2-0.02-0.4-0.06-0.61-0.04c-0.2-0.02-0.4-0.03-0.6-0.05
				c-0.23-0.04-0.46-0.09-0.7-0.13c-0.42-0.12-0.84-0.23-1.26-0.35c-0.23-0.1-0.46-0.19-0.7-0.29c-0.07-0.03-0.14-0.07-0.21-0.1
				c-0.14-0.07-0.29-0.15-0.43-0.22c-0.22-0.13-0.43-0.26-0.65-0.39c-0.02-0.01-0.03-0.02-0.05-0.04c-0.2-0.14-0.4-0.29-0.6-0.43
				c-0.1-0.08-0.21-0.17-0.31-0.25c-0.07-0.07-0.15-0.15-0.22-0.22c0.33-0.3,0.64-0.62,0.94-1c-0.3,0-0.55,0-0.81,0
				c-0.3,0-0.61-0.01-0.91,0c-0.17,0.01-0.26-0.06-0.35-0.19c-0.18-0.26-0.38-0.51-0.54-0.78c0.06-0.06,0.13-0.03,0.18-0.03
				c0.96,0,1.92-0.01,2.88,0c0.21,0,0.33-0.05,0.42-0.24c0.13-0.26,0.28-0.5,0.39-0.77c-0.08-0.06-0.16-0.03-0.24-0.03
				c-1.34,0-2.69,0-4.03,0c-0.16,0-0.25-0.03-0.3-0.2c-0.06-0.19-0.15-0.37-0.23-0.56c-0.1-0.24-0.09-0.25,0.17-0.25
				c1.52,0,3.05,0,4.57,0c0.5,0,0.5,0,0.62-0.49c0.03-0.14,0.1-0.27,0.09-0.42c0.13,0.15,0.25,0.32,0.42,0.43
				c0.56,0.37,1.16,0.37,1.78,0.23c0.16-0.04,0.25-0.09,0.23-0.26c0.18-0.03,0.32-0.11,0.33-0.32c0.1,0.28,0.27,0.51,0.55,0.6
				c0.52,0.17,1,0.03,1.42-0.35c0,0.08,0.01,0.12,0,0.15c-0.05,0.19,0.05,0.24,0.22,0.22c0.11-0.01,0.23-0.02,0.35,0
				c0.24,0.04,0.34-0.06,0.34-0.29c0.08-0.05,0.24,0.09,0.27-0.12c0.12-0.84,0.28-1.68,0.37-2.53c0.1-0.91-0.36-1.38-1.28-1.39
				c-0.37,0-0.73,0.05-1.09,0.13c-0.17,0.04-0.27,0.11-0.27,0.3c-0.1,0.03-0.24-0.01-0.27,0.15c-0.05,0.26-0.09,0.52-0.14,0.8
				c0.46-0.14,0.91-0.2,1.36-0.16c0.18,0.02,0.36,0.05,0.4,0.28c-0.22-0.01-0.44,0.01-0.66,0.04c-0.49,0.07-0.87,0.32-1.17,0.72
				c-0.25,0.14-0.32,0.39-0.39,0.64c-0.15,0.1-0.31,0.14-0.48,0.18c-0.53,0.11-0.98-0.09-1.13-0.55c-0.23-0.71-0.14-1.39,0.33-2
				c0.04,0,0.08,0.01,0.08-0.05l0,0c0.5-0.18,0.96-0.07,1.41,0.16c0.07-0.12,0.06-0.25,0.08-0.37c0.09-0.01,0.15,0.09,0.25,0.07
				c0.04-0.29,0.07-0.58,0.14-0.87c0.03-0.15-0.03-0.18-0.14-0.22c-0.89-0.34-1.71-0.23-2.46,0.37c-0.19,0.07-0.3,0.22-0.41,0.36
				c-0.08,0.11-0.16,0.12-0.27,0.08l-0.01-0.01c-0.03-0.56-0.03-0.56-0.6-0.56c-1.78,0-3.57,0-5.35,0c0,0,0,0,0,0
				c0.05-0.27,0.14-0.52,0.2-0.79c0.04-0.19,0.12-0.22,0.29-0.22c1.6,0.01,3.21,0,4.81,0c0.28,0,0.29-0.01,0.19-0.27
				c-0.08-0.19-0.17-0.38-0.24-0.58c-0.05-0.15-0.14-0.19-0.29-0.19c-1.34,0.01-2.69,0-4.03,0c-0.07,0-0.14,0-0.23,0
				c0.15-0.34,0.31-0.64,0.48-0.94c0.05-0.09,0.14-0.06,0.22-0.06c0.98,0,1.96,0,2.95,0c0.08,0,0.15,0,0.26,0
				c-0.2-0.38-0.45-0.68-0.69-0.99c-0.05-0.07-0.13-0.04-0.2-0.04c-0.56,0-1.12,0-1.71,0c0.26-0.4,0.62-0.67,0.91-1
				c0.4-0.31,0.79-0.64,1.21-0.92c0.14-0.06,0.27-0.15,0.39-0.25c0.09-0.05,0.17-0.1,0.26-0.14c0.22-0.11,0.43-0.22,0.65-0.33
				c0.13-0.02,0.23-0.09,0.34-0.14c0.1-0.04,0.2-0.08,0.31-0.12c0.22-0.07,0.44-0.12,0.65-0.22c0.22-0.05,0.44-0.1,0.65-0.15
				c0.32-0.05,0.63-0.11,0.95-0.16c0.33-0.02,0.67-0.03,1-0.05c0.22,0,0.43,0.01,0.65,0.01c0.43,0.06,0.87,0.12,1.3,0.17
				c0.18,0.06,0.37,0.11,0.56,0.13c0.26,0.08,0.52,0.17,0.78,0.25c0.43,0.16,0.84,0.36,1.25,0.56c0.13,0.08,0.26,0.15,0.4,0.23
				c0.07,0.05,0.14,0.09,0.22,0.14c0.23,0.16,0.46,0.32,0.69,0.48c0.22,0.18,0.43,0.35,0.65,0.53c0.01,0.07,0.08,0.09,0.13,0.13
				c0.17,0.18,0.33,0.36,0.52,0.52c0.01,0.06,0.05,0.09,0.09,0.12c0.35,0.42,0.66,0.85,0.96,1.3c0.08,0.14,0.17,0.29,0.25,0.43
				c0.01,0.09,0.08,0.15,0.12,0.23c0.1,0.22,0.2,0.43,0.3,0.65c0.05,0.2,0.13,0.38,0.22,0.56c0,0.03,0.01,0.06,0.01,0.08
				c0.07,0.22,0.14,0.43,0.2,0.65c0.05,0.22,0.09,0.43,0.14,0.65c0.05,0.25,0.04,0.5,0.12,0.74c0,0.09,0.01,0.17,0.01,0.26
				c0.01,0.32,0.03,0.64,0.04,0.95c-0.03,0.22-0.06,0.43-0.04,0.65c-0.03,0.22-0.05,0.43-0.08,0.65c-0.03,0.19-0.07,0.37-0.1,0.56
				c-0.07,0.25-0.13,0.49-0.2,0.74c-0.13,0.45-0.32,0.87-0.49,1.3c-0.25,0.43-0.5,0.87-0.74,1.3c-0.07,0.08-0.15,0.15-0.17,0.26
				c-0.12,0.12-0.22,0.25-0.31,0.39c-0.14,0.11-0.23,0.26-0.34,0.39c-0.1,0.07-0.18,0.17-0.25,0.27c-0.13,0.13-0.26,0.26-0.4,0.38
				c-0.1,0.09-0.22,0.15-0.3,0.26c-0.12,0.1-0.26,0.17-0.35,0.3c-0.19,0.09-0.34,0.24-0.52,0.35c-0.04,0.03-0.09,0.06-0.13,0.09
				c-0.22,0.13-0.43,0.26-0.65,0.39c-0.13,0.03-0.24,0.1-0.34,0.17 M31.27,18.5c-0.03,0-0.05,0.02-0.05,0.05c0,0,0,0,0,0
				c-0.23,0.12-0.32,0.36-0.49,0.54c0.04-0.37,0.2-0.71,0.35-1.05c-0.49-0.1-0.71,0.26-0.98,0.6c0.03-0.17,0.04-0.28,0.06-0.39
				c0.02-0.12,0-0.19-0.15-0.18c-0.16,0.01-0.33,0-0.5,0c-0.31,0-0.31,0-0.35,0.3c-0.12-0.01-0.26-0.11-0.29,0.12
				c-0.04,0.35-0.08,0.7-0.14,1.04c-0.13,0.88-0.26,1.77-0.41,2.65c-0.02,0.14,0.02,0.14,0.12,0.14c0.21,0,0.42-0.02,0.63,0
				c0.24,0.03,0.32-0.07,0.31-0.29c0.23,0.04,0.28-0.09,0.31-0.28c0.06-0.46,0.13-0.92,0.22-1.37c0.05-0.26,0.07-0.54,0.22-0.77
				c0.12-0.1,0.25-0.17,0.4-0.14c-0.05,0.16-0.1,0.32-0.14,0.48c-0.14,0.62-0.16,1.24,0.15,1.82c0.38,0.71,1.41,0.82,1.91,0.2l0,0
				c0.09,0.04,0.05,0.12,0.04,0.16c-0.04,0.16,0.02,0.19,0.16,0.18c0.18-0.01,0.36-0.02,0.54,0c0.24,0.03,0.32-0.08,0.31-0.29
				c0.23,0.05,0.28-0.09,0.31-0.28c0.05-0.4,0.12-0.79,0.18-1.19c0.18-1.08,0.36-2.16,0.54-3.25c0.02-0.12-0.02-0.15-0.13-0.15
				c-0.18,0.01-0.36,0.01-0.54,0c-0.21-0.01-0.4-0.02-0.4,0.27c-0.16-0.01-0.27,0-0.27,0.22c-0.01,0.22-0.08,0.43-0.12,0.65
				c-0.26-0.21-0.56-0.3-0.9-0.27c-0.31,0.03-0.56,0.2-0.79,0.39C31.34,18.42,31.28,18.44,31.27,18.5L31.27,18.5z M34.35,21.49
				c-0.15,0.15-0.16,0.29-0.02,0.42c0.13,0.13,0.31,0.13,0.44,0c0.12-0.11,0.12-0.3,0.01-0.43C34.67,21.37,34.49,21.37,34.35,21.49
				L34.35,21.49z"/>
			<path class="st6" d="M21.56,19.62c0.09-0.25,0.21-0.45,0.51-0.44c0.07,0,0.08-0.04,0.09-0.1c0.07-0.37,0.21-0.71,0.36-1.05
				c0.11,0.05,0.19,0.03,0.27-0.08c0.11-0.14,0.22-0.3,0.41-0.36c0,0.05-0.03,0.08-0.06,0.11c-0.77,0.91-0.94,1.96-0.68,3.09
				c0.16,0.67,0.61,1.11,1.3,1.25c0.35,0.07,0.7,0.03,1.05-0.02c0.02,0.17-0.07,0.23-0.23,0.26c-0.62,0.14-1.23,0.15-1.78-0.23
				c-0.17-0.11-0.29-0.28-0.42-0.43c-0.35-0.63-0.4-1.31-0.29-2c0.02-0.16-0.02-0.18-0.14-0.16C21.81,19.47,21.68,19.53,21.56,19.62
				z"/>
			<path class="st6" d="M16.62,21.26c-0.02-0.06,0.06-0.13-0.02-0.19c-0.12-0.79,0.02-1.51,0.47-2.17c0.03-0.05,0.07-0.09,0.14-0.1
				c-0.04,0.23-0.18,0.41-0.24,0.64c-0.13,0.54-0.17,1.08-0.01,1.62c0.18,0.59,0.7,0.97,1.32,1c0.38,0.02,0.76,0.01,1.14-0.07
				c0,0.2-0.13,0.25-0.3,0.29c-0.39,0.09-0.78,0.11-1.18,0.07C17.28,22.27,16.83,21.91,16.62,21.26z"/>
			<path class="st6" d="M15.48,17.74c-0.12,0.74-0.25,1.48-0.36,2.23c-0.07,0.47-0.21,0.93-0.16,1.41c0.05,0.48,0.34,0.73,0.83,0.7
				c0.14-0.01,0.29-0.02,0.43-0.02c0.03,0.14-0.03,0.21-0.17,0.24c-0.24,0.06-0.48,0.09-0.73,0.07c-0.35-0.02-0.6-0.26-0.66-0.61
				c-0.01-0.07-0.03-0.14-0.05-0.21c0.21-0.36,0.19-0.75,0.17-1.14c0.13-0.8,0.27-1.6,0.4-2.4C15.21,17.84,15.23,17.67,15.48,17.74z
				"/>
			<path class="st6" d="M5.15,17.43c-0.15,0.9-0.3,1.8-0.45,2.7c-0.1,0.62-0.21,1.25-0.31,1.89c0.25,0,0.49,0,0.73,0
				c-0.01,0.24-0.13,0.32-0.36,0.29c-0.18-0.02-0.36,0-0.54,0c-0.09,0-0.12-0.02-0.1-0.12c0.11-0.66,0.21-1.31,0.32-1.97
				c0.14-0.84,0.28-1.68,0.42-2.52C4.89,17.53,4.92,17.38,5.15,17.43z"/>
			<path class="st6" d="M9.14,20.24C9.09,20.49,9,20.73,9,20.99c0.02,0.88,0.63,1.27,1.49,1c0.2-0.06,0.37-0.19,0.51-0.34
				c0.01,0.01,0.03,0.01,0.03,0.02c-0.01,0.34-0.01,0.34,0.33,0.34c0.09,0,0.17,0,0.26,0.01c0,0.21-0.08,0.34-0.32,0.29
				c-0.06-0.01-0.13,0-0.19,0c-0.35,0-0.35,0-0.41-0.34c-0.31,0.27-0.65,0.41-1.06,0.4c-0.49-0.02-0.89-0.39-0.92-0.87
				c0-0.06,0.02-0.13-0.03-0.18c0.05-0.22,0.05-0.44,0.12-0.66C8.92,20.52,8.95,20.31,9.14,20.24z"/>
			<path class="st6" d="M20.6,18.34c-0.02,0.5-0.12,0.99-0.19,1.49c-0.1,0.67-0.21,1.34-0.32,2.01c-0.02,0.15,0.02,0.18,0.16,0.17
				c0.2-0.01,0.4,0,0.6,0.01c0.02,0.28-0.15,0.31-0.37,0.29c-0.18-0.02-0.36-0.02-0.54,0c-0.15,0.01-0.18-0.05-0.16-0.18
				c0.08-0.49,0.16-0.99,0.24-1.48c0.11-0.66,0.22-1.33,0.28-2C20.32,18.47,20.33,18.28,20.6,18.34z"/>
			<path class="st6" d="M5.72,20.03c0.08-0.52,0.16-1.05,0.24-1.57c0.02,0,0.05,0,0.07,0c0,0.36,0,0.71,0,1.07
				c0.01,0.78,0.03,1.56,0.04,2.33c0,0.12,0.03,0.17,0.15,0.16c0.12-0.01,0.24,0,0.37,0c-0.02,0.3-0.23,0.29-0.46,0.29
				c-0.36-0.01-0.36,0-0.37-0.36C5.75,21.31,5.73,20.67,5.72,20.03z"/>
			<path class="st6" d="M7.63,19.71c0.1-0.41,0.28-0.79,0.45-1.18c-0.05,0.35-0.1,0.7-0.16,1.04c-0.12,0.76-0.24,1.52-0.37,2.27
				c-0.02,0.14,0.02,0.18,0.16,0.18c0.2-0.01,0.4,0,0.61,0.01c0.01,0.26-0.13,0.31-0.36,0.29c-0.18-0.02-0.36-0.02-0.54,0
				c-0.19,0.02-0.19-0.07-0.17-0.21c0.13-0.78,0.26-1.55,0.38-2.33C7.64,19.75,7.63,19.73,7.63,19.71z"/>
			<path class="st6" d="M12.61,18.63c-0.03,0.27-0.13,0.52-0.1,0.8c0.05,0.38,0.24,0.65,0.56,0.84c0.16,0.09,0.33,0.18,0.49,0.27
				c0.13,0.07,0.25,0.16,0.22,0.33c-0.03,0.17-0.13,0.26-0.3,0.29c0.02-0.16-0.08-0.25-0.2-0.32c-0.1-0.06-0.22-0.11-0.33-0.17
				c-0.38-0.18-0.65-0.45-0.74-0.87c0.02-0.26,0.04-0.52,0.06-0.78C12.39,18.9,12.42,18.7,12.61,18.63z"/>
			<path class="st6" d="M9.62,18.42c-0.03,0.21-0.06,0.42-0.09,0.65c0.42-0.13,0.84-0.19,1.26-0.17c0.3,0.01,0.48,0.11,0.48,0.29
				c0.01,0.38,0,0.35-0.31,0.29c0-0.23-0.19-0.26-0.34-0.27c-0.42-0.04-0.83-0.02-1.23,0.11c-0.16,0.05-0.17-0.01-0.14-0.14
				c0.03-0.19,0.06-0.38,0.09-0.57C9.36,18.44,9.49,18.42,9.62,18.42z"/>
			<path class="st6" d="M12.18,21.39c0.02,0.14-0.02,0.27-0.04,0.4c-0.03,0.15,0.02,0.2,0.15,0.21c0.66,0.07,1.32,0.15,1.97-0.12
				c-0.23,0.34-0.6,0.43-0.97,0.47c-0.41,0.05-0.83,0.01-1.24-0.04c-0.2-0.02-0.24-0.12-0.21-0.28c0.12-0.21,0.07-0.46,0.14-0.69
				C12.05,21.35,12.12,21.37,12.18,21.39z"/>
			<path class="st6" d="M7.66,17.42c-0.3,0.89-0.59,1.78-0.89,2.67c-0.02-0.3-0.09-0.59,0-0.88c0.21-0.36,0.27-0.76,0.42-1.14
				c0.05-0.13,0.1-0.25,0.13-0.39C7.36,17.49,7.46,17.4,7.66,17.42z"/>
			<path class="st6" d="M17.89,20.67c-0.05-0.31-0.05-0.31,0.24-0.31c0.52,0,1.04,0,1.56,0.01c0,0.23-0.09,0.32-0.34,0.3
				C18.86,20.65,18.38,20.67,17.89,20.67z"/>
			<path class="st6" d="M13.59,19.19c0.07-0.21,0.21-0.3,0.5-0.3c0.16,0,0.33,0.03,0.49,0.05c-0.01,0.32-0.02,0.34-0.32,0.28
				C14.03,19.18,13.81,19.21,13.59,19.19z"/>
			<path class="st6" d="M16.27,19.31c0-0.32,0-0.32,0.4-0.29C16.71,19.36,16.46,19.29,16.27,19.31z"/>
			<path class="st6" d="M16.21,22.06c-0.01-0.04,0.01-0.03,0.04-0.03C16.24,22.03,16.23,22.05,16.21,22.06z"/>
			<path class="st6" d="M30.15,19.6c0.06-0.28,0.17-0.39,0.45-0.42c0.07-0.01,0.12-0.02,0.14-0.09c0.16-0.18,0.25-0.42,0.49-0.54
				c-0.01,0.14-0.13,0.22-0.19,0.34c-0.4,0.76-0.55,1.55-0.25,2.38c0.25,0.7,0.9,0.98,1.6,0.71c0.03-0.01,0.06-0.04,0.1-0.01
				c-0.49,0.62-1.53,0.51-1.91-0.2c-0.31-0.58-0.29-1.2-0.15-1.82c0.04-0.16,0.09-0.32,0.14-0.48C30.4,19.43,30.27,19.5,30.15,19.6z
				"/>
			<path class="st6" d="M29.17,18.36c-0.14,1.22-0.37,2.42-0.54,3.66c0.26,0,0.52,0,0.78,0c0.01,0.22-0.08,0.32-0.31,0.29
				c-0.21-0.02-0.42-0.01-0.63,0c-0.1,0-0.15,0-0.12-0.14c0.15-0.88,0.28-1.76,0.41-2.65c0.05-0.35,0.1-0.69,0.14-1.04
				C28.91,18.25,29.06,18.35,29.17,18.36z"/>
			<path class="st6" d="M25.14,21.7c0-0.26,0.06-0.51,0.11-0.76c0.03-0.17-0.07-0.05-0.11-0.07c0.07-0.25,0.14-0.5,0.39-0.64
				c-0.04,0.23-0.13,0.45-0.14,0.69c-0.04,0.83,0.54,1.31,1.35,1.11c0.26-0.06,0.47-0.19,0.65-0.38c0.01,0.01,0.03,0.02,0.03,0.02
				c-0.02,0.34-0.02,0.34,0.33,0.34c0.09,0,0.17,0,0.26,0.01c0,0.23-0.1,0.33-0.34,0.29c-0.11-0.02-0.23-0.01-0.35,0
				c-0.17,0.02-0.26-0.02-0.22-0.22c0.01-0.03,0-0.07,0-0.15c-0.43,0.38-0.9,0.53-1.42,0.35C25.41,22.21,25.24,21.98,25.14,21.7z"/>
			<path class="st6" d="M26.02,18.41c-0.03,0.21-0.06,0.42-0.1,0.66c0.44-0.14,0.86-0.19,1.29-0.17c0.3,0.01,0.45,0.12,0.47,0.31
				c0.03,0.3,0,0.32-0.3,0.27c-0.04-0.23-0.22-0.26-0.4-0.28c-0.45-0.04-0.89,0.02-1.36,0.16c0.05-0.29,0.09-0.54,0.14-0.8
				C25.78,18.39,25.92,18.44,26.02,18.41z"/>
			<path class="st6" d="M23.93,18.46c0.12-0.21,0.45-0.38,0.77-0.39c0.25,0,0.5,0.05,0.72,0.17c-0.02,0.12-0.01,0.25-0.08,0.37
				C24.89,18.39,24.43,18.28,23.93,18.46z"/>
			<path class="st6" d="M32.48,21.97c0.11-0.09,0.22-0.19,0.32-0.28c0.01,0.01,0.02,0.02,0.02,0.03c0,0.3,0,0.3,0.31,0.3
				c0.13,0,0.26,0,0.38,0.01c0.01,0.22-0.07,0.32-0.31,0.29c-0.18-0.02-0.36-0.01-0.54,0c-0.14,0.01-0.2-0.02-0.16-0.18
				C32.53,22.09,32.57,22,32.48,21.97z"/>
			<path class="st6" d="M33.48,17.43c-0.01,0.37-0.11,0.72-0.16,1.13c-0.1-0.1-0.16-0.18-0.23-0.26c0.04-0.22,0.12-0.43,0.12-0.65
				C33.21,17.43,33.32,17.41,33.48,17.43z"/>
			<path class="st6" d="M31.4,18.41c-0.04,0.04-0.05,0.12-0.13,0.1C31.28,18.44,31.34,18.42,31.4,18.41z"/>
			<path class="st6" d="M23.86,18.5c0.02-0.03,0.03-0.08,0.08-0.05C23.94,18.51,23.89,18.5,23.86,18.5z"/>
			<path class="st6" d="M31.27,18.5c0.02,0.05,0,0.06-0.05,0.05C31.22,18.52,31.24,18.5,31.27,18.5z"/>
			<path class="st4" d="M12.18,21.39c-0.07-0.02-0.14-0.03-0.21-0.05c0.08-0.51,0.16-1.01,0.24-1.52c0.09,0.42,0.36,0.69,0.74,0.87
				c0.11,0.05,0.22,0.1,0.33,0.17c0.12,0.07,0.22,0.16,0.2,0.32c-0.35,0.06-0.7,0.03-1.03-0.07c-0.18-0.05-0.25-0.03-0.23,0.17
				C12.23,21.31,12.2,21.35,12.18,21.39z"/>
			<path class="st4" d="M10.67,21.15c-0.18,0.12-0.37,0.14-0.53,0C9.97,21,9.98,20.8,10.06,20.6c0.03-0.01,0.05-0.01,0.08-0.02
				c0.21-0.05,0.47-0.13,0.62-0.01c0.15,0.12-0.03,0.35-0.05,0.54c0,0,0,0,0,0C10.69,21.11,10.67,21.12,10.67,21.15z"/>
			<path class="st6" d="M10.72,21.11c0.03-0.18,0.2-0.42,0.05-0.54c-0.15-0.13-0.41-0.05-0.62,0.01c-0.03,0.01-0.05,0.01-0.08,0.02
				c0.04-0.19,0.2-0.25,0.35-0.3c0.12-0.04,0.25-0.06,0.38-0.06c0.37-0.02,0.38,0.01,0.27,0.38C11,20.82,10.94,21.02,10.72,21.11z"
				/>
			<path class="st6" d="M10.67,21.15c0-0.03,0.02-0.04,0.05-0.04C10.73,21.15,10.7,21.14,10.67,21.15z"/>
			<path class="st6" d="M18.1,19.2c0.18-0.28,0.36-0.37,0.66-0.3c0.25,0.05,0.44,0.39,0.33,0.62c-0.06,0.14-0.2,0.04-0.31,0.06
				C18.73,19.22,18.52,19.1,18.1,19.2z"/>
			<path class="st4" d="M18.1,19.2c0.42-0.1,0.63,0.02,0.69,0.38c-0.22,0-0.45-0.01-0.67,0.01c-0.17,0.01-0.18-0.05-0.13-0.18
				C18.03,19.34,18.07,19.27,18.1,19.2z"/>
			<path class="st5" d="M32.56,21c-0.43,0.22-0.75,0.06-0.82-0.42c-0.07-0.45-0.01-0.87,0.23-1.26c0.4-0.11,0.69,0.03,0.76,0.39
				c0.04,0.19,0.05,0.38,0.03,0.58c-0.03,0.22-0.11,0.42-0.15,0.64c0,0,0,0,0,0C32.56,20.92,32.58,20.98,32.56,21z"/>
			<path class="st6" d="M32.61,20.94c0.03-0.22,0.12-0.42,0.15-0.64c0.02-0.2,0.01-0.39-0.03-0.58c-0.07-0.36-0.36-0.5-0.76-0.39
				c0.09-0.16,0.23-0.27,0.41-0.31c0.27-0.07,0.48,0.03,0.6,0.28c0.2,0.42,0.05,1.28-0.29,1.62C32.68,20.93,32.66,20.97,32.61,20.94
				z"/>
			<path class="st6" d="M32.56,21c0.02-0.03,0-0.08,0.06-0.07C32.64,20.99,32.59,20.99,32.56,21z"/>
			<path class="st5" d="M27.07,21.15c-0.19,0.11-0.38,0.15-0.55,0c-0.17-0.16-0.14-0.36-0.06-0.55c0.03,0,0.06-0.01,0.08-0.01
				c0.21-0.06,0.48-0.13,0.62,0c0.14,0.12-0.02,0.37-0.08,0.55C27.08,21.13,27.08,21.14,27.07,21.15z"/>
			<path class="st6" d="M27.07,21.15c0-0.01,0-0.01,0-0.02c0.06-0.19,0.22-0.43,0.08-0.55c-0.14-0.12-0.41-0.06-0.62,0
				c-0.03,0.01-0.06,0.01-0.08,0.01c0.12-0.3,0.4-0.32,0.65-0.35c0.42-0.04,0.47,0.03,0.33,0.43
				C27.38,20.87,27.28,21.05,27.07,21.15z"/>
			<path class="st5" d="M34.34,21.5c0.06,0.04,0.1-0.01,0.15-0.02c0.12-0.02,0.21,0.02,0.26,0.13c0.05,0.1,0.02,0.18-0.05,0.25
				c-0.08,0.08-0.18,0.09-0.27,0.03c-0.09-0.06-0.13-0.15-0.11-0.26C34.32,21.59,34.4,21.55,34.34,21.5
				C34.35,21.49,34.34,21.5,34.34,21.5z M34.65,21.83c-0.03-0.06,0.01-0.12,0-0.16c-0.04-0.14-0.14-0.17-0.21-0.03
				C34.35,21.81,34.53,21.79,34.65,21.83z"/>
		</g>
	</g>
</g>
<g id="Слой_4" class="st0">
	<g class="st3">
		<path class="st7" d="M23.61,14.36c0.72,0,1.45,0,2.17,0c0.23,0.11,0.49,0.12,0.74,0.18l0.02,0.01c0.02,0.01,0.05,0.01,0.07,0.02
			c0.14,0.04,0.27,0.08,0.41,0.11c0.2,0.07,0.06,0.22,0.08,0.33c-0.07,0.43-0.14,0.87-0.22,1.3c-0.02,0.09-0.04,0.18-0.05,0.27
			c-0.05,0.31-0.04,0.31-0.34,0.2c-0.23-0.11-0.47-0.21-0.74-0.22c-0.24-0.09-0.49-0.12-0.74-0.13c-0.07-0.01-0.15-0.01-0.22-0.02
			c-0.34-0.02-0.69-0.03-1.02,0.1c-0.22,0.02-0.41,0.12-0.58,0.26c-0.35,0.3-0.36,0.67-0.03,0.98c0.18,0.17,0.39,0.3,0.61,0.4
			c0.1,0.05,0.19,0.1,0.29,0.15c0.14,0.07,0.27,0.17,0.43,0.2c0.21,0.11,0.42,0.23,0.63,0.34l0.01,0c0.02,0.01,0.04,0.01,0.06,0.02
			c0.04,0.06,0.11,0.07,0.17,0.1c0.15,0.11,0.29,0.22,0.44,0.33c0.11,0.09,0.19,0.21,0.32,0.28c0.1,0.14,0.19,0.29,0.32,0.4
			c0.02,0.09,0.06,0.16,0.11,0.23c0.06,0.19,0.13,0.38,0.19,0.57c0,0.29,0.01,0.57,0.01,0.86c-0.04,0.17-0.09,0.34-0.13,0.52
			c-0.17,0.5-0.46,0.92-0.83,1.29c-0.21,0.16-0.41,0.32-0.64,0.46c-0.2,0.13-0.43,0.22-0.64,0.33c-0.23,0.04-0.44,0.12-0.65,0.2
			c-0.19,0.04-0.37,0.07-0.56,0.11c-0.17,0.02-0.35,0.04-0.52,0.07c-0.13,0.01-0.26,0.02-0.39,0.02c-0.61,0.03-1.22-0.04-1.83-0.1
			c-0.21-0.08-0.43-0.08-0.65-0.14c-0.23-0.06-0.46-0.12-0.69-0.18c-0.06-0.07-0.15-0.07-0.23-0.1c0-0.04,0-0.09,0-0.13
			c0.01-0.04,0.02-0.08,0.03-0.13l0-0.02c0.03-0.03,0.03-0.07,0.02-0.11c0.03-0.08,0.06-0.17,0.04-0.26
			c0.03-0.19,0.06-0.38,0.1-0.56c0.07-0.21,0.03-0.44,0.12-0.65c0.03-0.08,0.06-0.17,0.05-0.26c0.01-0.06,0-0.13,0.11-0.08
			c0.16,0.08,0.33,0.14,0.5,0.2c0.41,0.2,0.85,0.31,1.31,0.37c0.06,0.03,0.12,0.02,0.18,0.01c0.06,0.06,0.14,0.03,0.21,0.04
			c0.07,0,0.14,0,0.21,0.01c0.23,0,0.46,0,0.7-0.01c0.23-0.01,0.44-0.06,0.65-0.16c0.14-0.04,0.28-0.07,0.36-0.21
			c0.2-0.12,0.33-0.29,0.31-0.54c0.1-0.29-0.09-0.48-0.27-0.64c-0.3-0.28-0.68-0.44-1.05-0.61c-0.43-0.22-0.86-0.44-1.26-0.71
			c-0.04-0.04-0.08-0.09-0.14-0.1c-0.17-0.16-0.34-0.32-0.51-0.48c-0.05-0.06-0.09-0.11-0.14-0.17c-0.11-0.21-0.25-0.41-0.31-0.65
			c-0.06-0.21-0.08-0.43-0.1-0.65c0-0.09,0-0.18,0-0.26c0.05-0.04,0.06-0.08-0.02-0.11c0.06-0.03,0.03-0.09,0.04-0.14
			c0.09-0.25,0.17-0.49,0.26-0.74c0.11-0.09,0.15-0.22,0.22-0.33c0.1-0.12,0.2-0.24,0.29-0.36c0.07-0.07,0.15-0.14,0.22-0.21
			c0.02-0.01,0.03-0.03,0.05-0.04c0,0,0,0,0,0c0.02-0.02,0.03-0.03,0.05-0.05c0,0,0,0,0,0c0.02-0.02,0.03-0.03,0.05-0.05
			c0,0,0,0,0,0c0.15-0.1,0.3-0.2,0.45-0.3c0,0,0.01-0.01,0.01-0.01c0.02-0.02,0.04-0.03,0.06-0.05c0,0,0.01,0,0.01,0l0.01-0.01
			c0.03,0.01,0.05-0.01,0.06-0.04c0.01,0,0.02,0,0.03-0.01c0.22-0.09,0.44-0.18,0.65-0.27c0.1-0.03,0.19-0.05,0.29-0.08
			C23.08,14.5,23.35,14.43,23.61,14.36z"/>
		<path class="st5" d="M3.15,14.83c-0.09-0.07-0.21-0.06-0.3-0.1c-0.06-0.03-0.17,0.01-0.16-0.13c0.02-0.12,0.09-0.12,0.19-0.12
			c0.53,0,1.07,0.01,1.6,0.01c0.83,0,1.67-0.01,2.5,0c0.32,0,0.64,0.03,0.91,0.2c0.33,0.21,0.43,0.56,0.5,0.91
			c0.01,0.05,0,0.1,0.05,0.14c0.01,0.09-0.01,0.18,0.04,0.26c0.04,0.34,0.13,0.67,0.22,1c0.05,0.43,0.14,0.84,0.26,1.26
			c0.05,0.37,0.11,0.73,0.22,1.08c0,0.08,0.02,0.15,0.05,0.21c-0.01,0.04-0.01,0.09-0.02,0.13c-0.52-1.15-1.27-2.13-2.24-2.93
			c-0.43-0.35-0.88-0.69-1.39-0.93l0,0c0-0.03-0.02-0.04-0.04-0.03c-0.39-0.22-0.79-0.43-1.22-0.57c-0.2-0.11-0.43-0.17-0.65-0.25
			c-0.03-0.01-0.06-0.01-0.09-0.02C3.44,14.89,3.29,14.87,3.15,14.83z"/>
		<path class="st7" d="M5.57,15.83c0.51,0.24,0.96,0.57,1.39,0.93c0.98,0.8,1.72,1.78,2.24,2.93c0.05,0.19,0.11,0.37,0.16,0.56
			c0.04,0.19,0.08,0.38,0.11,0.56c0,0.02,0.01,0.03,0.01,0.05c0.04,0.13,0.01,0.28,0.1,0.41c0.05-0.15,0.1-0.28,0.14-0.41
			c0.1-0.2,0.18-0.42,0.25-0.64c0.17-0.44,0.35-0.87,0.52-1.31c0.06-0.18,0.17-0.34,0.2-0.53c0.21-0.47,0.39-0.94,0.56-1.42
			c0.19-0.43,0.36-0.86,0.51-1.31l0,0c0.06-0.02,0.05-0.08,0.05-0.12c0.07-0.17,0.15-0.34,0.19-0.52c0.04-0.08,0.09-0.15,0.11-0.23
			c0.05-0.25,0.2-0.29,0.43-0.29c0.78,0.02,1.55,0,2.33,0.01c0.08,0,0.2-0.06,0.19,0.11c-0.05,0.13-0.14,0.24-0.15,0.39
			c-0.22,0.4-0.39,0.83-0.55,1.26c-0.11,0.2-0.2,0.41-0.27,0.64c-0.05,0.05-0.07,0.11-0.09,0.18c-0.08,0.19-0.16,0.38-0.24,0.56
			c-0.11,0.19-0.19,0.39-0.26,0.6c-0.07,0.09-0.09,0.19-0.12,0.29c-0.08,0.1-0.11,0.22-0.15,0.33c-0.1,0.23-0.2,0.46-0.3,0.69
			c-0.04,0.08-0.08,0.16-0.12,0.25c-0.12,0.31-0.3,0.61-0.38,0.94c-0.15,0.26-0.26,0.52-0.36,0.8c-0.01,0.02-0.02,0.03-0.02,0.05
			c-0.1,0.18-0.18,0.36-0.23,0.56c-0.1,0.22-0.19,0.44-0.29,0.66c-0.02,0.05-0.04,0.1-0.06,0.14c-0.01,0.02-0.02,0.05-0.03,0.07
			c0,0.02-0.01,0.04-0.01,0.06c-0.01,0.02-0.02,0.05-0.04,0.07c-0.01,0.01-0.02,0.02-0.02,0.03c-0.06,0.08-0.1,0.16-0.11,0.26l0,0
			c-0.01,0.02-0.02,0.04-0.03,0.05c-0.08,0.22-0.22,0.42-0.26,0.65c-0.06,0.11-0.12,0.22-0.18,0.32c-0.23-0.01-0.46-0.03-0.69,0.02
			c-0.19-0.03-0.38-0.03-0.57,0c-0.39-0.06-0.78,0.01-1.17,0c-0.42-0.01-0.42-0.01-0.55-0.38c-0.1-0.46-0.24-0.91-0.38-1.37
			c-0.06-0.2-0.11-0.4-0.17-0.59c-0.06-0.21-0.12-0.43-0.18-0.64c-0.05-0.2-0.11-0.4-0.16-0.6c0.01-0.02,0-0.04-0.02-0.05
			c-0.04-0.24-0.12-0.46-0.19-0.69c-0.04-0.21-0.09-0.41-0.17-0.61c-0.13-0.49-0.25-0.99-0.42-1.46c-0.01-0.17-0.07-0.33-0.12-0.49
			c-0.06-0.22-0.13-0.43-0.19-0.65c-0.04-0.21-0.08-0.41-0.17-0.61c0-0.01,0-0.03-0.01-0.04C5.65,16.15,5.54,16,5.57,15.83z"/>
		<path class="st7" d="M18.9,14.75c-0.01,0.09-0.03,0.17-0.04,0.26c-0.03,0.22-0.07,0.44-0.1,0.65c-0.04,0.23-0.08,0.46-0.12,0.69
			c-0.1,0.36-0.14,0.72-0.19,1.09c-0.04,0.24-0.12,0.46-0.11,0.7c-0.08,0.25-0.1,0.51-0.14,0.77c-0.03,0.24-0.11,0.48-0.11,0.73
			c-0.07,0.21-0.11,0.43-0.12,0.65c-0.07,0.4-0.17,0.8-0.2,1.21c-0.08,0.2-0.09,0.42-0.13,0.63l0,0.01c0,0.02-0.01,0.04-0.01,0.06
			c-0.04,0.26-0.08,0.52-0.12,0.78c-0.06,0.15-0.07,0.3-0.08,0.46l0,0.01c-0.03,0.06-0.03,0.12-0.03,0.18
			c-0.06,0.18-0.08,0.37-0.09,0.56c-0.03,0.02-0.04,0.06-0.03,0.09c0.01,0.18-0.09,0.22-0.25,0.21c-0.12-0.01-0.24,0-0.37,0.01
			c-0.22-0.02-0.43-0.02-0.65,0c-0.22,0-0.43,0-0.65,0c-0.22-0.02-0.43-0.02-0.65,0c-0.16,0-0.27-0.04-0.17-0.24
			c0.03-0.05,0.02-0.13,0.02-0.19c0.07-0.2,0.11-0.4,0.11-0.61c0.04-0.22,0.07-0.45,0.13-0.66c0.06-0.21,0-0.44,0.11-0.64
			c0.03-0.22,0.07-0.44,0.1-0.65c0.04-0.24,0.08-0.49,0.12-0.73c0.04-0.22,0.09-0.43,0.13-0.65l0-0.02
			c0.01-0.02,0.01-0.05,0.02-0.07c0.02-0.16,0.05-0.32,0.07-0.47c0.08-0.44,0.15-0.87,0.23-1.31c0.04-0.26,0.08-0.52,0.12-0.78
			c0.05-0.17,0.09-0.35,0.1-0.53c0.01-0.03,0.01-0.06,0.02-0.08c0-0.01,0.01-0.02,0.01-0.04l0-0.01l-0.01-0.01
			c0.04-0.05,0.03-0.1,0.02-0.16c0.04-0.11,0.06-0.23,0.06-0.34c0.04-0.23,0.08-0.46,0.12-0.7c0.06-0.36,0.15-0.71,0.18-1.07
			c0.28-0.09,0.57-0.04,0.86-0.05c0.54-0.01,1.09,0.02,1.63,0C18.92,14.48,18.95,14.56,18.9,14.75z"/>
		<path class="st7" d="M31.68,14.52c0.05,0,0.09,0,0.14-0.01c0.01-0.01,0.02-0.01,0.04-0.01c0.04,0.02,0.09,0.02,0.13-0.01
			c0.63,0,1.26,0.02,1.88,0.01c0.18,0,0.28,0.04,0.32,0.21c-0.01,0.11,0.03,0.2,0.06,0.3c0.05,0.24,0.1,0.48,0.15,0.72
			c0.05,0.22,0.1,0.44,0.16,0.67c0.04,0.23,0.07,0.46,0.15,0.68c0.08,0.35,0.15,0.7,0.23,1.06c0.01,0.05,0.01,0.09,0.02,0.14
			c0,0,0,0.01,0,0.01c0.04,0.18,0.06,0.37,0.14,0.54c0,0.22,0.09,0.43,0.11,0.65c0.07,0.25,0.08,0.51,0.19,0.74
			c0.01,0.18,0.05,0.35,0.1,0.52c-0.01,0.1,0.04,0.2,0.06,0.29c0.04,0.16,0.08,0.32,0.12,0.49c0.03,0.22,0.07,0.44,0.14,0.66
			c0.03,0.23,0.09,0.46,0.16,0.69c0.07,0.43,0.15,0.85,0.28,1.26c0.01,0.08,0.01,0.17,0.05,0.25c0.05,0.13-0.03,0.13-0.11,0.14
			c-0.22-0.02-0.43-0.02-0.65,0c-0.22,0-0.43,0-0.65,0c-0.22-0.02-0.43-0.02-0.65,0c-0.11,0-0.21-0.01-0.32-0.01
			c-0.06,0-0.13,0.01-0.14-0.06c-0.08-0.34-0.15-0.67-0.23-1.01c-0.01-0.05-0.02-0.1-0.02-0.15c-0.02-0.21-0.1-0.29-0.34-0.29
			c-0.99,0.02-1.99,0-2.98,0c-0.07,0-0.16-0.03-0.23,0.03c0,0,0,0,0,0c-0.01,0.02-0.02,0.04-0.03,0.05
			c-0.06,0.1-0.09,0.21-0.11,0.32c-0.1,0.23-0.22,0.46-0.29,0.7c-0.08,0.28-0.19,0.46-0.52,0.4c-0.22,0-0.43,0-0.65,0
			c-0.22-0.02-0.43-0.02-0.65,0c-0.22,0-0.43,0-0.65,0c-0.04,0-0.08-0.01-0.13-0.01c-0.12,0-0.29,0.04-0.35-0.02
			c-0.1-0.1,0.09-0.21,0.08-0.34c0.14-0.2,0.2-0.44,0.3-0.66c0.07-0.09,0.11-0.2,0.14-0.31c0.05-0.12,0.1-0.23,0.15-0.35l0.01-0.01
			l-0.01-0.01l0.01-0.01c0.11-0.18,0.2-0.37,0.24-0.57c0.24-0.43,0.42-0.89,0.61-1.34c0.2-0.43,0.41-0.85,0.56-1.3
			c0.13-0.18,0.2-0.39,0.27-0.59c0.09-0.05,0.07-0.16,0.12-0.23c0.07-0.16,0.13-0.31,0.2-0.47c0.12-0.21,0.2-0.43,0.29-0.65
			c0.19-0.43,0.39-0.87,0.58-1.3c0.22-0.43,0.37-0.89,0.62-1.31c0.08-0.08,0.16-0.16,0.23-0.25C31.2,14.63,31.43,14.55,31.68,14.52z
			 M32.42,18.26c-0.03-0.16-0.06-0.31-0.1-0.47c-0.03-0.16-0.05-0.33-0.16-0.49c-0.11,0.32-0.23,0.65-0.34,0.97
			c-0.18,0.43-0.36,0.85-0.51,1.3c-0.09,0.2-0.19,0.4-0.23,0.61c-0.06,0.1-0.11,0.19-0.11,0.31c-0.1,0.07-0.09,0.2-0.14,0.3
			c-0.08,0.13-0.04,0.17,0.11,0.17c0.64-0.01,1.27-0.01,1.91,0c0.19,0,0.21-0.06,0.11-0.2c-0.02-0.18-0.05-0.36-0.11-0.53
			c-0.02-0.22-0.07-0.44-0.15-0.66c-0.05-0.22-0.06-0.44-0.14-0.65C32.53,18.68,32.49,18.47,32.42,18.26z"/>
	</g>
</g>
<g id="Слой_5" class="st0">
	<g class="st3">
		
			<linearGradient id="SVGID_1_" gradientUnits="userSpaceOnUse" x1="163.4882" y1="-614.4369" x2="184.4893" y2="-614.4369" gradientTransform="matrix(1.7108 0 0 -0.5845 -278.16 -339.6629)">
			<stop  offset="0" style="stop-color:#872166"/>
			<stop  offset="1" style="stop-color:#4F2455"/>
		</linearGradient>
		<path class="st8" d="M30.11,14.57l2.99-0.53v11.48h-2.99V14.57z M34.47,14.57v10.94h2.99V14.03L34.47,14.57z M25.85,25.51h2.99
			v-8.39h-2.99V25.51z M6.09,18.3c-0.38-0.03-1.25-0.08-1.25-0.87c0-0.95,1.26-0.95,1.73-0.95c0.83,0,1.91,0.25,2.67,0.48
			c0,0,0.43,0.15,0.79,0.3l0.03,0.01v-2.6l-0.04-0.01c-0.91-0.32-1.96-0.62-3.92-0.62c-3.37,0-4.56,1.96-4.56,3.64
			c0,0.97,0.42,3.25,4.28,3.52c0.33,0.02,1.2,0.07,1.2,0.89c0,0.67-0.71,1.07-1.91,1.07c-1.31,0-2.58-0.34-3.35-0.65v2.68
			c1.15,0.3,2.46,0.46,3.99,0.46c3.3,0,4.77-1.86,4.77-3.7C10.51,19.85,8.86,18.49,6.09,18.3z M24.17,16.99
			C21.4,17.08,20,18.32,20,20.79v4.72h3.02v-3.85c0-1.48,0.19-2.11,1.95-2.17v-2.46C24.66,16.97,24.17,16.99,24.17,16.99
			L24.17,16.99z M16.06,17.11c-0.06,0.16-0.55,1.52-1.7,2.92v-6l-3.09,0.61v10.86h3.09v-3.36c0.89,1.34,1.34,3.36,1.34,3.36h3.69
			c-0.37-1.52-1.96-4.32-1.96-4.32c1.43-1.82,2.07-3.76,2.17-4.08L16.06,17.11L16.06,17.11z M27.34,16.31
			c0.81,0,1.48-0.66,1.48-1.47s-0.66-1.48-1.48-1.48c-0.81,0-1.47,0.66-1.47,1.48C25.87,15.65,26.53,16.31,27.34,16.31z"/>
	</g>
</g>
<g id="Слой_6" class="st0">
	<g class="st3">
		<path class="st9" d="M4.07,28.13c0.52-0.87,1.09-1.72,1.7-2.53c0.28-0.37,1.13-0.53,1.53-0.27c0.11,0.07,0.18,0.2,0.17,0.33
			c0,1.84,0,3.69,0,5.54c0.02,0.18-0.1,0.34-0.28,0.37c-0.1,0.03-0.2,0.04-0.3,0.05c-0.85,0.04-0.94-0.04-0.94-0.87v-2.63L5.9,28.09
			c-0.2,0.37-0.41,0.75-0.61,1.12c-0.17,0.31-0.33,0.62-0.51,0.92c-0.33,0.54-0.97,0.53-1.29-0.01c-0.35-0.61-0.69-1.22-1.03-1.83
			c-0.04-0.07-0.09-0.12-0.17-0.26v2.98c0,0.48-0.1,0.58-0.6,0.61c-0.83,0.03-0.91-0.05-0.91-0.88c0-1.63,0-3.27,0-4.9
			c0-0.45,0.11-0.56,0.56-0.61c0.13-0.01,0.26-0.01,0.39-0.01c0.38-0.02,0.63,0.13,0.83,0.47C3.02,26.5,3.54,27.29,4.07,28.13z"/>
		<path class="st9" d="M21.99,28.57c0-0.91,0-1.81,0-2.7c0-0.4,0.11-0.52,0.5-0.58c0.05,0,0.1,0,0.15,0
			c0.79-0.02,0.87,0.06,0.87,0.83c0,1.68,0,3.35,0,5.02c0,0.39-0.1,0.5-0.48,0.53c-0.15,0.01-0.3,0-0.45,0.01
			c-0.25,0.01-0.48-0.12-0.6-0.33c-0.58-0.87-1.17-1.73-1.76-2.59c-0.08-0.11-0.16-0.22-0.24-0.34c-0.06,0.09-0.08,0.2-0.06,0.31
			c0,0.78,0,1.56,0,2.35c0,0.48-0.12,0.6-0.61,0.61c-0.86,0.02-0.92-0.03-0.92-0.9v-4.87c0-0.46,0.07-0.54,0.52-0.61
			c0.49-0.07,0.87,0.04,1.17,0.51c0.55,0.89,1.16,1.73,1.75,2.6C21.85,28.47,21.87,28.54,21.99,28.57z"/>
		<path class="st10" d="M10.72,28.49c0-0.9,0.01-1.8,0-2.71c0-0.29,0.12-0.43,0.39-0.46c0.1-0.01,0.2-0.02,0.3-0.02
			c1.01,0,2.01,0,3.02,0c0.44,0,0.64,0.23,0.63,0.72c0,0.49-0.2,0.71-0.65,0.71c-0.64,0-1.29,0.01-1.94,0
			c-0.2,0-0.25,0.06-0.25,0.26c0,0.79-0.01,0.79,0.77,0.79c0.38,0,0.77,0,1.15,0c0.4,0,0.62,0.27,0.61,0.73
			c-0.01,0.46-0.21,0.7-0.63,0.7c-0.55,0-1.11,0.01-1.66,0c-0.18,0-0.24,0.05-0.24,0.24c0.01,0.58,0.01,1.16,0,1.74
			c0,0.34-0.13,0.47-0.46,0.5c-0.93,0.09-1.05-0.01-1.05-0.93L10.72,28.49z"/>
		<path class="st9" d="M35.41,27.37c0.35-0.54,0.7-1.03,0.99-1.55c0.22-0.4,0.55-0.53,0.97-0.53c0.16,0,0.32,0.02,0.48,0.05
			c0.38,0.07,0.48,0.31,0.27,0.63c-0.59,0.91-1.17,1.82-1.77,2.73c-0.12,0.18-0.19,0.4-0.18,0.62c0.01,0.61,0.01,1.2,0,1.81
			c0,0.36-0.12,0.5-0.49,0.55c-0.07,0.01-0.14,0.02-0.21,0.03c-0.64,0.05-0.84-0.13-0.84-0.77c0-0.39-0.03-0.78,0.01-1.17
			c0.04-0.51-0.1-1.02-0.42-1.42c-0.53-0.76-1.01-1.55-1.51-2.33c-0.23-0.36-0.12-0.6,0.31-0.67c0.18-0.03,0.36-0.04,0.54-0.03
			c0.34,0,0.65,0.18,0.81,0.48C34.69,26.31,35.05,26.82,35.41,27.37z"/>
		<path class="st9" d="M29.41,25.29c0.69,0,1.39,0.01,2.08,0c0.28,0,0.43,0.11,0.48,0.39c0.02,0.09,0.03,0.18,0.03,0.27
			c0.02,0.75-0.07,0.85-0.82,0.85c-0.23,0-0.46,0.02-0.69,0c-0.25-0.02-0.32,0.06-0.32,0.31c0.01,1.27,0.01,2.54,0.01,3.82
			c0,0.69-0.07,0.76-0.75,0.76c-0.09,0-0.18,0-0.27,0c-0.37-0.02-0.5-0.15-0.5-0.53c0-1.35-0.01-2.71,0-4.06
			c0-0.23-0.05-0.32-0.3-0.3c-0.34,0.02-0.68,0-1.03,0c-0.07,0.01-0.14,0-0.21-0.01c-0.25-0.06-0.36-0.47-0.29-1.02
			c0.04-0.34,0.17-0.46,0.47-0.46C28,25.29,28.7,25.29,29.41,25.29z"/>
		<path class="st11" d="M15.83,28.51c0-0.89,0-1.78,0-2.68c0-0.36,0.11-0.48,0.46-0.53c0.03,0,0.06,0,0.09-0.01
			c0.88-0.04,0.97,0.05,0.97,0.91c0,1.62,0,3.25,0,4.87c0,0.48-0.12,0.59-0.61,0.61c-0.88,0.02-0.92-0.02-0.92-0.89L15.83,28.51z"/>
		<path class="st9" d="M24.52,28.48c0-0.9,0-1.8,0-2.71c0-0.26,0.1-0.4,0.35-0.44c0.1-0.02,0.2-0.03,0.3-0.04
			c0.8-0.01,0.87,0.05,0.87,0.83c0,1.66,0,3.33,0,4.99c0,0.41-0.12,0.54-0.53,0.56c-0.92,0.04-0.98-0.01-0.98-0.91L24.52,28.48z"/>
		<path class="st9" d="M9.83,29.52c0,0.56-0.01,1.12,0,1.68c0,0.29-0.14,0.42-0.41,0.46c-0.04,0-0.08,0.01-0.12,0.01
			c-1.15,0.04-1-0.15-1-0.94c0-0.95,0-1.91,0-2.86c0-0.39,0.12-0.52,0.51-0.55h0.09c0.83-0.04,0.92,0.05,0.92,0.87L9.83,29.52z"/>
		<path class="st9" d="M8.25,26.12c0-0.61,0.18-0.78,0.83-0.78c0.57,0,0.78,0.22,0.78,0.81s-0.21,0.8-0.83,0.8
			S8.25,26.76,8.25,26.12z"/>
		
			<linearGradient id="SVGID_00000146466799725699958240000015254133994616178067_" gradientUnits="userSpaceOnUse" x1="294.8285" y1="-552.5859" x2="307.2458" y2="-545.4166" gradientTransform="matrix(1 0 0 -1 -289.87 -532.99)">
			<stop  offset="0" style="stop-color:#BE8B1D"/>
			<stop  offset="0.51" style="stop-color:#FCC300"/>
			<stop  offset="1" style="stop-color:#CA9712"/>
		</linearGradient>
		<path style="fill:url(#SVGID_00000146466799725699958240000015254133994616178067_);" d="M17.85,14.15l-0.06-0.02l0,0
			c-0.75,0.85-1.65,1.53-2.5,2.27c-1.35,0.92-2.71,1.86-4.24,2.46c-1.09,0.46-2.25,0.72-3.44,0.78c-0.2,0-0.4-0.02-0.59-0.07
			c-0.13-0.03-0.25-0.06-0.38-0.1c-1.35-0.38-1.72-1.47-1.94-2.66c-0.17-0.9,0.36-2.63,0.79-3.29c0.04-0.06,0.08-0.12,0.12-0.18
			c-0.41,0.17-0.68,0.52-0.93,0.86c-0.11,0.21-0.21,0.42-0.29,0.64c-0.84,2.39-0.3,5.11,2.76,5.82c0.44,0.11,0.89,0.18,1.34,0.18
			c2.45,0.16,4.74-0.4,6.91-1.49c1.59-0.72,3.04-1.69,4.31-2.88C18.92,15.83,18.48,14.99,17.85,14.15z"/>
		
			<linearGradient id="SVGID_00000151514274848067064380000002799471061673918366_" gradientUnits="userSpaceOnUse" x1="313.0005" y1="-546.5623" x2="322.5215" y2="-541.0657" gradientTransform="matrix(1 0 0 -1 -289.87 -532.99)">
			<stop  offset="0" style="stop-color:#BE8B1D"/>
			<stop  offset="0.51" style="stop-color:#FCC300"/>
			<stop  offset="1" style="stop-color:#CA9712"/>
		</linearGradient>
		<path style="fill:url(#SVGID_00000151514274848067064380000002799471061673918366_);" d="M33.72,9.93l-0.05-0.07l-0.01-0.02
			c-0.09-0.13-1.07-1.51-1.35-1.67l0,0c-1.07-0.84-2.32-0.89-3.58-0.71c-2.35,0.35-4.39,1.43-6.31,2.78l0,0l-0.33,0.23l0,0
			l-0.32,0.23l0,0l-0.16,0.07l0,0c0.39,1.09,1.1,1.89,1.72,2.71l0.03-0.03c0.02-0.07,0.13-0.14,0.36-0.3
			c1.35-0.94,2.69-1.93,4.19-2.64c0.81-0.39,1.66-0.68,2.53-0.87c0.21-0.04,0.43-0.07,0.65-0.09c0.88-0.07,1.55-0.01,2.28,0.57
			c0.12,0.13,0.22,0.29,0.29,0.45c0.08,0.22,0.14,0.45,0.2,0.68C33.85,10.8,33.81,10.36,33.72,9.93z M30.72,8.83
			c0-0.13,0-0.26,0.01-0.39C30.72,8.57,30.72,8.7,30.72,8.83z"/>
		<polygon class="st14" points="17.79,14.13 21.61,10.77 17.79,14.13 		"/>
		
			<linearGradient id="SVGID_00000050654191076960213010000008115629193065990785_" gradientUnits="userSpaceOnUse" x1="299.0975" y1="-539.3073" x2="321.7991" y2="-552.4121" gradientTransform="matrix(1 0 0 -1 -289.87 -532.99)">
			<stop  offset="0" style="stop-color:#049ED4"/>
			<stop  offset="0.42" style="stop-color:#00B8FA"/>
			<stop  offset="1" style="stop-color:#004E62"/>
		</linearGradient>
		<path style="fill:url(#SVGID_00000050654191076960213010000008115629193065990785_);" d="M20.65,17.36
			c1.28,0.9,2.72,1.11,4.3,1.32c0.16,0.02,0.46,0.08,0.68,0.11c0.65,0.07,1.31,0.08,1.96,0.02c1.17-0.02,2.32-0.28,3.38-0.76
			c0.84-0.3,1.62-0.77,2.28-1.38c1.7-1.57,1.95-3.69,0.93-5.91c-0.08-0.19-0.35-0.64-0.45-0.83c0.09,0.43,0.14,0.88,0.14,1.32
			c0.25,1.14,0.04,2.16-0.62,3.27c0.1-0.03,0.2-0.09,0.27-0.16c-0.08,0.07-0.17,0.13-0.27,0.16l0,0l0,0l-0.23,0.29l-0.03,0.05l0,0
			l-0.07,0.08l-0.02,0.02l0,0l-0.09,0.09l-0.02,0.02l0,0c-0.03,0.03-0.06,0.06-0.09,0.09l-0.02,0.02l0,0
			c-0.03,0.03-0.06,0.06-0.09,0.09l-0.02,0.02l0,0l-0.09,0.09h-0.02c-1.85,1.35-3.86,1.45-5.97,0.72l0,0
			c-0.78-0.37-1.51-0.84-2.16-1.41c-0.16-0.14-0.32-0.3-0.45-0.47l-0.27-0.39c-0.17-0.21-0.25-0.3-0.24-0.38l-0.03,0.03l0.16,0.21
			l-0.16-0.21c-0.67-0.84-1.25-1.74-1.72-2.71l0,0l0,0c-0.08-0.11-0.15-0.25-0.23-0.34c-0.35-0.48-0.76-0.9-1.22-1.26
			c-1.42-1.29-3.29-1.96-5.21-1.89c-0.01,0-0.01,0-0.02,0c-0.84-0.04-1.68,0.09-2.47,0.37c-0.79,0.2-1.55,0.53-2.24,0.98h-0.02
			c-1.96,1.03-3.46,2.56-4.75,4.32c-0.29,0.4-0.55,0.82-0.78,1.25c0.26-0.34,0.51-0.7,0.93-0.86c0.15-0.2,0.31-0.38,0.49-0.55
			c2.01-1.84,4.18-2.82,7.02-2.49c0.94,0.13,1.8,0.56,2.46,1.24c0.79,0.79,1.52,1.63,2.18,2.54l0,0l0.09,0.09
			c0.63,0.84,1.1,1.66,1.89,2.32l0.02-0.02 M11.68,9.98c-0.13,0.03-0.26,0.06-0.39,0.08C11.42,10.04,11.55,10.01,11.68,9.98
			l0.27-0.01L11.68,9.98z M31.56,16.17c-0.09,0.05-0.15,0.13-0.17,0.23c-0.02,0.11-0.05,0.22-0.09,0.32
			c0.04-0.1,0.07-0.21,0.09-0.32C31.4,16.3,31.47,16.21,31.56,16.17c0.31-0.17,0.67-0.26,0.84-0.59
			C32.22,15.91,31.86,16,31.56,16.17L31.56,16.17z"/>
		<path class="st14" d="M21.61,10.77L21.61,10.77l0.1,0.1l-0.04-0.04l-0.05-0.07"/>
	</g>
</g>
<g id="Слой_7" class="st0">
	<g class="st3">
		<path class="st16" d="M8.43,24.23c-1.62,0-3.24,0-4.87,0c-0.26,0-0.49-0.06-0.6-0.32c-0.1-0.19-0.07-0.41,0.06-0.58
			c0.05-0.05,0.11-0.09,0.18-0.11c0.51-0.06,0.42-0.42,0.42-0.76c0-1.34,0-2.68,0.01-4.03c0-0.22,0.03-0.43-0.27-0.48
			c-0.1-0.01-0.18-0.11-0.16-0.22c0-0.01,0-0.02,0-0.02c0.01-0.11,0.09-0.2,0.2-0.23c0.09-0.02,0.18-0.02,0.28-0.02
			c3.16,0,6.33,0,9.49,0.01c0.11-0.01,0.21,0,0.32,0.03c0.12,0.03,0.2,0.14,0.2,0.27c0,0.11-0.07,0.23-0.17,0.24
			c-0.27,0.02-0.27,0.15-0.27,0.35c0,1.47-0.01,2.95-0.02,4.42c0,0.19,0.02,0.34,0.25,0.37c0.34,0.04,0.5,0.26,0.46,0.58
			c-0.04,0.34-0.27,0.49-0.62,0.48c-1.64,0-3.27,0-4.91,0L8.43,24.23z M7.58,20.57L7.58,20.57c0,0.73,0.01,1.46,0,2.19
			c0,0.26,0.08,0.36,0.34,0.35c0.36-0.01,0.72-0.01,1.08,0c0.21,0.01,0.31-0.06,0.31-0.29c0-1.5,0-3,0.01-4.5
			c0-0.25-0.11-0.33-0.33-0.32c-0.33,0.02-0.66,0.02-1,0c-0.33-0.02-0.41,0.12-0.4,0.42C7.59,19.14,7.58,19.85,7.58,20.57z
			 M6.45,20.57h0.01c0-0.74-0.01-1.48,0.01-2.23c0.01-0.27-0.09-0.35-0.34-0.34c-0.36,0.02-0.72,0.01-1.07,0
			c-0.19,0-0.29,0.05-0.29,0.27c0,1.53,0,3.05,0,4.57c0,0.18,0.07,0.26,0.26,0.26c0.33,0,0.67-0.02,0.99,0.01s0.47-0.07,0.45-0.44
			C6.43,21.98,6.45,21.28,6.45,20.57L6.45,20.57z M12.12,20.57L12.12,20.57c0-0.74-0.01-1.49,0-2.23c0-0.23-0.07-0.34-0.32-0.33
			c-0.37,0.01-0.74,0.01-1.12,0.01c-0.18,0-0.27,0.06-0.27,0.25c0,1.53,0,3.05-0.01,4.58c0,0.19,0.07,0.26,0.26,0.26
			c0.36,0,0.72-0.02,1.07,0.01c0.31,0.02,0.38-0.11,0.37-0.39C12.11,22.01,12.12,21.29,12.12,20.57L12.12,20.57z"/>
		<path class="st16" d="M8.45,16.95c-1.84,0-3.67,0-5.51,0c-0.16,0-0.32,0.02-0.46-0.09c-0.39-0.29-0.35-0.75,0.11-0.99
			c0.57-0.29,1.15-0.54,1.73-0.8c1.26-0.57,2.52-1.13,3.77-1.7c0.2-0.11,0.44-0.11,0.65-0.01c1.83,0.82,3.65,1.64,5.48,2.47
			c0.28,0.13,0.52,0.32,0.42,0.67c-0.09,0.34-0.34,0.45-0.7,0.45C12.12,16.94,10.28,16.95,8.45,16.95z"/>
		<path class="st16" d="M3.2,25.7c-0.15,0-0.29,0-0.44-0.01c-0.31-0.01-0.51-0.2-0.53-0.49C2.2,24.89,2.4,24.68,2.7,24.6
			c0.12-0.02,0.24-0.03,0.36-0.02c3.55,0,7.1,0,10.65,0.01c0.08,0,0.16,0,0.24,0c0.44,0.01,0.72,0.24,0.72,0.57
			c0,0.33-0.25,0.53-0.7,0.53c-1.65,0.01-3.3,0.01-4.95,0.02h-0.6C8.42,25.71,4.94,25.7,3.2,25.7z"/>
		<path class="st17" d="M17.41,15.71h1.69c0.39,0,0.68,0.08,0.89,0.25c0.2,0.16,0.32,0.42,0.31,0.68c0,0.34-0.21,0.65-0.53,0.78
			c0.42,0.09,0.72,0.47,0.7,0.9c0.01,0.3-0.11,0.59-0.32,0.79c-0.23,0.21-0.53,0.31-0.84,0.3h-1.88V15.71z M18.04,16.24v1.02h0.88
			c0.25,0,0.43-0.04,0.55-0.12c0.12-0.08,0.18-0.21,0.18-0.39c0-0.21-0.06-0.34-0.18-0.41c-0.16-0.07-0.34-0.11-0.52-0.1
			L18.04,16.24z M18.04,17.72v1.16h0.97c0.2,0.01,0.41-0.03,0.59-0.12c0.14-0.08,0.21-0.23,0.21-0.45c0-0.11-0.02-0.21-0.06-0.3
			c-0.04-0.08-0.11-0.14-0.19-0.18c-0.08-0.04-0.16-0.07-0.25-0.08c-0.1-0.02-0.2-0.02-0.31-0.02L18.04,17.72z"/>
		<path class="st17" d="M21.69,19.46c-0.14,0-0.27-0.03-0.39-0.09c-0.11-0.06-0.21-0.15-0.27-0.26c-0.12-0.24-0.13-0.53-0.03-0.78
			c0.05-0.09,0.11-0.18,0.2-0.24c0.08-0.06,0.17-0.11,0.27-0.15c0.1-0.03,0.2-0.06,0.3-0.08l0.77-0.12
			c0.01-0.11-0.01-0.23-0.06-0.33c-0.05-0.08-0.12-0.13-0.21-0.16c-0.1-0.03-0.2-0.04-0.3-0.04c-0.06,0-0.13,0.01-0.19,0.01
			c-0.07,0.01-0.14,0.02-0.21,0.04c-0.08,0.02-0.15,0.04-0.24,0.07c-0.09,0.03-0.17,0.06-0.25,0.1l-0.03-0.49
			c0.06-0.03,0.14-0.05,0.22-0.08c0.08-0.02,0.17-0.05,0.26-0.07c0.09-0.02,0.19-0.04,0.29-0.05c0.1-0.01,0.2-0.02,0.3-0.02
			c0.18,0,0.36,0.03,0.52,0.09c0.14,0.06,0.26,0.16,0.33,0.29c0.08,0.16,0.12,0.34,0.12,0.52v1.75h-0.5l-0.03-0.34h-0.05
			c-0.06,0.07-0.12,0.13-0.19,0.19c-0.08,0.06-0.17,0.11-0.27,0.15C21.92,19.44,21.8,19.46,21.69,19.46z M21.87,19.02
			c0.08,0,0.17-0.02,0.25-0.06c0.08-0.04,0.16-0.09,0.22-0.16c0.07-0.07,0.13-0.16,0.18-0.25V18.1c-0.03,0.02-0.07,0.03-0.1,0.04
			c-0.06,0.02-0.12,0.03-0.18,0.05c-0.08,0.02-0.2,0.04-0.34,0.06c-0.08,0.01-0.15,0.04-0.22,0.08c-0.06,0.03-0.11,0.08-0.14,0.14
			c-0.03,0.06-0.05,0.13-0.05,0.21c-0.01,0.1,0.03,0.2,0.11,0.27C21.68,18.99,21.77,19.02,21.87,19.02z"/>
		<path class="st17" d="M23.81,19.41v-2.58l0.47-0.03l0.02,0.47h0.06c0.06-0.09,0.13-0.17,0.21-0.24c0.09-0.08,0.19-0.14,0.3-0.19
			c0.12-0.05,0.26-0.08,0.39-0.08c0.27,0,0.47,0.08,0.59,0.23c0.13,0.15,0.19,0.38,0.19,0.69v1.73h-0.56v-1.57
			c0.01-0.15-0.02-0.29-0.1-0.42c-0.06-0.1-0.18-0.14-0.35-0.14c-0.1,0-0.19,0.02-0.28,0.06c-0.08,0.04-0.16,0.09-0.23,0.16
			c-0.07,0.07-0.13,0.15-0.18,0.23v1.68L23.81,19.41z"/>
		<path class="st17" d="M26.78,15.72h0.61v3.69h-0.61V15.72z M27.05,18.44l1.29-1.66h0.67l-1.94,2.35L27.05,18.44z M27.67,17.97
			l0.45-0.34l1.02,1.78h-0.69L27.67,17.97z"/>
		<path class="st17" d="M18.39,24.6v-3.61l0.24,0.44h-1.45V20.9h3.03v0.54h-1.45L19,20.99v3.61H18.39z"/>
		<path class="st17" d="M20.36,24.6v-2.58l0.47-0.03l0.02,0.51h0.05c0.06-0.13,0.14-0.25,0.24-0.35c0.08-0.07,0.17-0.13,0.27-0.16
			c0.08-0.03,0.17-0.04,0.26-0.04c0.05,0,0.09,0,0.14,0.01c0.05,0.01,0.09,0.02,0.14,0.03l-0.05,0.55
			c-0.06-0.01-0.11-0.02-0.16-0.02c-0.05-0.01-0.1-0.01-0.17-0.01c-0.05,0-0.11,0.01-0.16,0.02c-0.06,0.02-0.12,0.04-0.18,0.08
			c-0.07,0.05-0.13,0.11-0.17,0.18c-0.06,0.1-0.11,0.2-0.14,0.31v1.49L20.36,24.6z"/>
		<path class="st17" d="M23.02,24.65c-0.14,0-0.27-0.03-0.39-0.09c-0.11-0.06-0.21-0.15-0.27-0.26c-0.07-0.13-0.1-0.27-0.1-0.41
			c0-0.12,0.02-0.25,0.07-0.36c0.05-0.09,0.11-0.18,0.2-0.24c0.08-0.06,0.17-0.11,0.27-0.15c0.1-0.03,0.2-0.06,0.3-0.08l0.77-0.12
			c0.01-0.11-0.01-0.23-0.06-0.33c-0.05-0.08-0.12-0.13-0.21-0.16c-0.1-0.03-0.2-0.04-0.3-0.04c-0.06,0-0.13,0-0.19,0.01
			c-0.07,0.01-0.14,0.02-0.22,0.04c-0.08,0.02-0.15,0.04-0.24,0.07c-0.09,0.03-0.17,0.06-0.25,0.1l-0.03-0.49
			c0.06-0.03,0.14-0.05,0.22-0.08s0.17-0.05,0.26-0.07c0.09-0.02,0.19-0.04,0.29-0.05c0.1-0.01,0.2-0.02,0.3-0.02
			c0.18,0,0.36,0.03,0.52,0.09c0.14,0.06,0.26,0.16,0.33,0.29c0.08,0.16,0.13,0.34,0.12,0.52v1.75H23.9l-0.03-0.34h-0.05
			c-0.06,0.07-0.12,0.13-0.19,0.19c-0.08,0.06-0.17,0.11-0.27,0.15C23.26,24.63,23.14,24.65,23.02,24.65z M23.2,24.21
			c0.08,0,0.17-0.02,0.25-0.06c0.08-0.04,0.16-0.09,0.22-0.16c0.07-0.07,0.13-0.16,0.18-0.25v-0.46c-0.03,0.02-0.07,0.03-0.1,0.04
			c-0.06,0.02-0.12,0.03-0.18,0.05c-0.08,0.02-0.2,0.04-0.34,0.06c-0.08,0.01-0.15,0.04-0.22,0.08c-0.06,0.03-0.11,0.08-0.14,0.14
			c-0.03,0.06-0.05,0.13-0.05,0.21c-0.01,0.1,0.03,0.2,0.12,0.27C23.01,24.19,23.11,24.21,23.2,24.21z"/>
		<path class="st17" d="M25.14,24.6v-2.58l0.48-0.03l0.02,0.47h0.05c0.06-0.09,0.13-0.17,0.21-0.24c0.09-0.08,0.19-0.14,0.3-0.19
			c0.12-0.05,0.26-0.08,0.39-0.08c0.27,0,0.47,0.08,0.6,0.23c0.13,0.15,0.19,0.38,0.19,0.69v1.73h-0.56v-1.57
			c0.01-0.15-0.02-0.29-0.1-0.42c-0.06-0.1-0.18-0.14-0.35-0.14c-0.1,0-0.19,0.02-0.27,0.06c-0.08,0.04-0.16,0.1-0.23,0.16
			c-0.07,0.07-0.13,0.15-0.18,0.23v1.68L25.14,24.6z"/>
		<path class="st17" d="M28.89,24.66c-0.11,0-0.22-0.01-0.33-0.02c-0.1-0.01-0.21-0.04-0.31-0.07c-0.09-0.03-0.17-0.06-0.25-0.1
			l0.04-0.5c0.08,0.05,0.17,0.09,0.25,0.12c0.09,0.03,0.19,0.06,0.29,0.08c0.1,0.02,0.2,0.03,0.3,0.03c0.08,0,0.15-0.01,0.23-0.02
			c0.06-0.01,0.12-0.05,0.17-0.09c0.05-0.06,0.07-0.13,0.06-0.21c0-0.06-0.02-0.11-0.06-0.15c-0.06-0.05-0.12-0.09-0.19-0.11
			c-0.09-0.03-0.21-0.07-0.37-0.11c-0.13-0.03-0.26-0.08-0.37-0.14c-0.1-0.05-0.19-0.13-0.25-0.23c-0.06-0.11-0.09-0.25-0.09-0.38
			c-0.01-0.22,0.08-0.44,0.24-0.58c0.18-0.15,0.41-0.22,0.65-0.21c0.11,0,0.22,0.01,0.33,0.03c0.1,0.02,0.2,0.04,0.29,0.07
			c0.08,0.02,0.15,0.05,0.23,0.09l-0.04,0.5c-0.08-0.05-0.17-0.09-0.26-0.13c-0.09-0.03-0.18-0.06-0.27-0.08
			c-0.07-0.01-0.14-0.02-0.22-0.02c-0.06,0-0.13,0.01-0.19,0.03c-0.06,0.02-0.11,0.05-0.14,0.09c-0.07,0.1-0.07,0.23-0.01,0.33
			c0.04,0.05,0.09,0.09,0.15,0.11c0.1,0.04,0.21,0.08,0.32,0.11c0.15,0.04,0.3,0.1,0.44,0.16c0.11,0.05,0.21,0.12,0.28,0.22
			c0.07,0.11,0.1,0.24,0.09,0.37c0,0.15-0.03,0.29-0.1,0.42c-0.08,0.13-0.19,0.23-0.33,0.29C29.29,24.63,29.09,24.67,28.89,24.66z"
			/>
		<path class="st17" d="M30.21,22.45v-0.43h1.84v0.43H30.21z M30.67,24.6v-2.89c0-0.16,0.02-0.33,0.08-0.48
			c0.04-0.12,0.12-0.22,0.21-0.3c0.09-0.07,0.2-0.13,0.31-0.16c0.12-0.03,0.24-0.05,0.37-0.05c0.07,0,0.13,0,0.2,0.01
			c0.1,0.01,0.2,0.03,0.3,0.06l-0.04,0.47c-0.06-0.02-0.12-0.04-0.18-0.05c-0.06-0.01-0.13-0.02-0.2-0.02
			c-0.18,0-0.31,0.04-0.4,0.13c-0.09,0.11-0.14,0.25-0.13,0.39v0.3l0.02,0.11v2.47L30.67,24.6z"/>
		<path class="st17" d="M33.67,24.66c-0.27,0.01-0.54-0.05-0.78-0.18c-0.2-0.11-0.36-0.28-0.45-0.48c-0.19-0.45-0.2-0.95,0-1.4
			c0.09-0.2,0.23-0.36,0.41-0.47c0.38-0.21,0.84-0.23,1.24-0.04c0.16,0.08,0.29,0.21,0.37,0.38c0.09,0.19,0.14,0.4,0.13,0.62
			c0,0.07,0,0.13,0,0.18c0,0.05-0.01,0.11-0.02,0.16l-0.49-0.21c0-0.03,0.01-0.05,0.01-0.08c0-0.03,0-0.05,0-0.07
			c0.01-0.18-0.05-0.36-0.16-0.49c-0.11-0.12-0.26-0.18-0.42-0.18c-0.12,0-0.25,0.04-0.35,0.11c-0.1,0.08-0.18,0.18-0.23,0.3
			c-0.06,0.14-0.08,0.29-0.08,0.44v0.08c0,0.16,0.03,0.32,0.1,0.47c0.06,0.13,0.16,0.24,0.29,0.3c0.15,0.08,0.32,0.11,0.49,0.11
			c0.08,0,0.17-0.01,0.25-0.02c0.09-0.01,0.18-0.03,0.27-0.06c0.09-0.03,0.18-0.06,0.26-0.11l0.02,0.48
			c-0.07,0.04-0.15,0.07-0.23,0.09c-0.1,0.03-0.19,0.05-0.29,0.06C33.9,24.65,33.78,24.66,33.67,24.66z M32.51,23.41v-0.38
			l1.72-0.02l0.33,0.14v0.26H32.51z"/>
		<path class="st17" d="M35.19,24.6v-2.58l0.48-0.03l0.02,0.51h0.05c0.05-0.13,0.14-0.25,0.24-0.35c0.08-0.07,0.17-0.13,0.27-0.16
			c0.08-0.03,0.17-0.04,0.26-0.04c0.05,0,0.09,0,0.14,0.01c0.05,0.01,0.09,0.02,0.14,0.03l-0.05,0.55
			c-0.06-0.01-0.11-0.02-0.16-0.02c-0.04-0.01-0.1-0.01-0.17-0.01c-0.05,0-0.11,0.01-0.16,0.02c-0.06,0.02-0.12,0.04-0.18,0.08
			c-0.07,0.05-0.13,0.11-0.17,0.18c-0.06,0.1-0.11,0.2-0.14,0.31v1.49L35.19,24.6z"/>
	</g>
</g>
<g id="Слой_8" class="st0">
	<circle class="st18" cx="19.5" cy="19.5" r="19.5"/>
	<g class="st3">
		<g>
			<path class="st2" d="M10.02,32.67c1.14,0,2.01-0.76,2.01-1.88c0-1.04-0.74-1.49-1.64-1.75c-0.58-0.17-0.94-0.29-0.94-0.7
				c0-0.34,0.25-0.61,0.64-0.61c0.33,0,0.58,0.19,0.76,0.49l0.94-0.6c-0.29-0.65-0.96-0.98-1.67-0.98c-1.14,0-1.86,0.82-1.86,1.77
				c0,0.76,0.45,1.34,1.57,1.67c0.61,0.17,1,0.29,1,0.78c0,0.45-0.33,0.74-0.8,0.74c-0.51,0-0.9-0.33-1.13-0.63l-0.78,0.78
				C8.54,32.31,9.23,32.67,10.02,32.67 M14.62,32.67c-1.2,0-2.18-0.96-2.18-2.13s0.98-2.13,2.18-2.13s2.18,0.96,2.18,2.13
				S15.82,32.67,14.62,32.67 M14.62,31.6c0.58,0,1.04-0.46,1.04-1.06s-0.46-1.06-1.04-1.06c-0.59,0-1.04,0.46-1.04,1.06
				C13.57,31.15,14.04,31.6,14.62,31.6 M19.62,27.78v-1.07h-0.17c-1.39,0-2.07,0.92-2.07,2.01v3.85h1.14v-1.69
				c0-0.56,0.43-0.96,1.06-0.98v-1.08c-0.45,0-0.81,0.13-1.06,0.4v-0.43C18.52,28.08,18.98,27.76,19.62,27.78 M22.1,32.67
				c-1.2,0-2.18-0.96-2.18-2.13s0.98-2.13,2.18-2.13c1.2,0,2.18,0.96,2.18,2.13S23.3,32.67,22.1,32.67 M22.1,31.6
				c0.59,0,1.04-0.46,1.04-1.06s-0.46-1.06-1.04-1.06s-1.04,0.46-1.04,1.06C21.06,31.15,21.52,31.6,22.1,31.6 M26,28.98v-0.46h-1.1
				v4.05h1.14v-1.85c0-0.67,0.39-1.04,1.08-1.04v-1.22C26.6,28.44,26.23,28.61,26,28.98 M28.9,30.5v-0.99
				c0.25,0.27,0.61,0.4,1.06,0.4v-1.08c-0.62-0.01-1.06-0.43-1.06-0.98v-0.64h-1.14v3.35c0,1.08,0.68,2.01,2.07,2.01H30V31.5
				C29.37,31.52,28.9,31.21,28.9,30.5 M31.36,32.63c0.41,0,0.76-0.34,0.76-0.76c0-0.41-0.34-0.76-0.76-0.76s-0.76,0.34-0.76,0.76
				C30.6,32.29,30.94,32.63,31.36,32.63"/>
			<path class="st2" d="M18.25,18.32c0.35,0.35,0.36,0.92,0.01,1.27l-0.07,0.07c-0.35,0.35-0.92,0.36-1.27,0.01l-2.01-1.99
				c-0.56-0.56-0.63-1.24-0.28-1.6l0.07-0.07c0.29-0.3,0.76-0.33,1.09-0.07c0.15,0.12,0.38,0.09,0.51-0.06
				c0.12-0.15,0.09-0.38-0.06-0.51c-0.62-0.49-1.51-0.43-2.06,0.13l-0.07,0.07c-0.65,0.67-0.52,1.8,0.29,2.61l2.01,2.01
				c0.65,0.62,1.67,0.61,2.3-0.03l0.07-0.07c0.62-0.64,0.6-1.66-0.03-2.29c-0.14-0.14-0.37-0.14-0.51,0.01
				C18.1,17.95,18.1,18.18,18.25,18.32 M17.05,7.54l0.82,6.76c0.02,0.19,0.2,0.34,0.4,0.31c0.19-0.02,0.34-0.2,0.31-0.4l-0.82-6.78
				l-0.01-0.04c-0.14-0.56,0.21-1.19,0.68-1.29c0.26-0.05,0.54-0.01,0.76,0.14c0.22,0.15,0.37,0.37,0.43,0.64l1.43,6.12
				c0.05,0.19,0.24,0.31,0.43,0.27c0.19-0.05,0.31-0.24,0.27-0.43l-1.43-6.1c-0.09-0.44-0.35-0.84-0.74-1.09
				c-0.38-0.25-0.86-0.34-1.3-0.25C17.4,5.58,16.83,6.61,17.05,7.54"/>
			<path class="st2" d="M24.6,15.48l1.63-8.1c0.19-0.87-0.33-1.75-1.19-2c-0.96-0.24-1.93,0.32-2.18,1.27l-1.8,6.16
				c-0.05,0.19,0.05,0.39,0.25,0.45s0.39-0.05,0.45-0.25l1.8-6.17c0.15-0.57,0.73-0.91,1.29-0.77c0.48,0.15,0.78,0.65,0.68,1.16
				l-1.63,8.1c-0.04,0.19,0.09,0.39,0.28,0.43C24.37,15.8,24.56,15.67,24.6,15.48 M20.51,23.28c-2.58,0-4.72-1.89-4.72-4.57
				c0-0.2-0.16-0.36-0.36-0.36s-0.36,0.16-0.36,0.36c0,3.1,2.5,5.29,5.45,5.29c0.2,0,0.36-0.16,0.36-0.36
				C20.87,23.44,20.71,23.28,20.51,23.28 M19.24,16.97c-0.05,0.2-0.18,0.38-0.35,0.5l-0.08,0.05c-0.41,0.28-0.98,0.17-1.26-0.24
				l-1.58-2.35c-0.43-0.66-0.37-1.34,0.04-1.63l0.07-0.05c0.54-0.31,0.98-0.07,1.45,0.6l1.32,1.97c0.11,0.17,0.33,0.21,0.5,0.1
				c0.17-0.11,0.21-0.33,0.1-0.5l-1.32-1.97c-0.66-0.95-1.46-1.37-2.43-0.81l-0.1,0.07c-0.78,0.53-0.87,1.67-0.23,2.62l1.58,2.36
				c0.51,0.74,1.51,0.94,2.25,0.43l0.08-0.05c0.31-0.21,0.54-0.54,0.65-0.9c0.05-0.19-0.06-0.39-0.25-0.44
				C19.48,16.66,19.29,16.78,19.24,16.97"/>
			<path class="st2" d="M21.62,18.16c-0.75,0.42-1.22,1.2-1.27,2.4c-0.01,0.2,0.14,0.37,0.34,0.38c0.2,0.01,0.37-0.14,0.38-0.34
				c0.05-1.08,0.48-1.67,1.15-1.92c0.36-0.13,0.76-0.16,1.1-0.13l0.09,0.01c0.46,0.09,0.61-0.6,0.15-0.71l-2.78-0.62
				c-1.3-0.35-1.5-0.84-1.26-1.64c0.11-0.35,0.31-0.53,0.64-0.6c0.21-0.05,0.45-0.04,0.68,0c0.07,0.01,0.11,0.02,0.13,0.03
				l4.22,0.98l0.08,0.03c0.07,0.03,0.14,0.08,0.21,0.15c0.28,0.3,0.44,0.87,0.36,1.81c-0.27,3.28-1.8,5.31-5.43,5.28
				c-0.2,0-0.36,0.16-0.36,0.35c0,0.2,0.16,0.36,0.35,0.36c4.07,0.03,5.85-2.33,6.15-5.94c0.09-1.12-0.11-1.89-0.55-2.36
				c-0.24-0.25-0.5-0.37-0.69-0.4l-4.17-0.97c-0.03-0.01-0.09-0.03-0.19-0.04c-0.31-0.05-0.64-0.06-0.96,0.01
				c-0.56,0.13-0.99,0.48-1.17,1.1c-0.35,1.16,0.02,2.07,1.77,2.54L21.62,18.16z"/>
		</g>
	</g>
</g>
<g id="Слой_9">
	<g>
		<path class="st19" d="M37.12,16.82c-0.47-0.32-1.17-0.48-2.1-0.48H32.6l-0.9,4.89h-3.17l0.2-1.11h1.91l0.23-1.25l-1.91,0l0.2-1.1
			h1.97l0.26-1.43h-4l-0.85,4.63h-1.47l0.86-4.64h-2.09l-0.85,4.63h-1.43l0.86-4.63h-2.09l-0.9,4.89h-3.19l0.2-1.11h1.92l0.23-1.24
			l-1.92,0l0.2-1.11h1.99l0.26-1.43H6.67l-0.71,3.87l-1.41-3.87H2.38l-1.17,6.32h2.07l0.71-3.98l1.37,3.98h7.42l0.9-4.89h1.16
			l-0.9,4.89h19.52l0.57-3.09l0.92,3.09h2.07l-0.95-2.52l0.22-0.05c0.48-0.1,0.85-0.32,1.11-0.65c0.26-0.33,0.39-0.76,0.39-1.27
			C37.78,17.57,37.57,17.13,37.12,16.82L37.12,16.82z M10.98,21.23H7.81l0.2-1.11H10l0.23-1.25H8.26l0.19-1.1h3.16L10.98,21.23
			L10.98,21.23z M35.41,19.1c-0.21,0.15-0.51,0.22-0.92,0.22h-0.41l0.31-1.7h0.3c0.34,0,0.59,0.05,0.77,0.17
			c0.13,0.09,0.29,0.26,0.29,0.59C35.75,18.77,35.57,18.99,35.41,19.1L35.41,19.1z"/>
	</g>
</g>
<g id="Слой_10" class="st0">
	<g class="st3">
		<path id="path2491_00000042701059850452339890000005130384420020950172_" class="st20" d="M4.53,18.89
			c-0.01-0.23-0.11-0.34-0.32-0.35H3.1c-0.26,0.02-0.4,0.16-0.4,0.43v2c0.01,0.28,0.16,0.42,0.45,0.43h1.02
			c0.11,0,0.19-0.04,0.26-0.12c0.07-0.06,0.11-0.14,0.11-0.23V18.89z M1.27,18.61c0.01-0.5,0.12-0.88,0.33-1.14
			c0.11-0.11,0.25-0.2,0.43-0.27c0.18-0.08,0.35-0.12,0.52-0.12h2.04c0.9,0.01,1.35,0.5,1.37,1.47v3c-0.01,0.35-0.14,0.65-0.4,0.9
			c-0.26,0.26-0.57,0.4-0.93,0.41H2.7v2.17H1.27V18.61"/>
		<path id="path2493_00000054960599763027073010000011797173604722003124_" class="st20" d="M8.53,21.11c0,0.08,0.04,0.15,0.11,0.2
			C8.71,21.37,8.8,21.4,8.9,21.4H10c0.25,0,0.38-0.1,0.38-0.29V20.7c0-0.22-0.13-0.34-0.39-0.34H8.9c-0.14,0-0.24,0.02-0.3,0.07
			c-0.05,0.05-0.08,0.16-0.08,0.31V21.11z M10.38,18.86c0.01-0.22-0.12-0.32-0.38-0.32H7.13v-1.46h3.23
			c0.94,0.02,1.42,0.47,1.43,1.37v3.06c-0.01,0.39-0.13,0.71-0.36,0.96c-0.24,0.26-0.55,0.4-0.93,0.4H8.55
			c-0.95-0.01-1.43-0.44-1.45-1.3v-1.18c0.01-0.9,0.47-1.36,1.38-1.38h1.89V18.86"/>
		<path id="path2495_00000043438953264758268630000000910729985860891304_" class="st20" d="M15.79,23.56
			c0.11-0.01,0.21-0.05,0.29-0.12c0.08-0.07,0.11-0.15,0.11-0.23v-0.35h-1.82c-0.24,0-0.43-0.03-0.57-0.09
			c-0.15-0.05-0.3-0.16-0.45-0.3c-0.14-0.15-0.24-0.32-0.31-0.48c-0.06-0.15-0.1-0.35-0.1-0.59v-4.32h1.42v3.86
			c0,0.31,0.13,0.46,0.38,0.46h1.01c0.12,0,0.22-0.04,0.31-0.12c0.08-0.07,0.13-0.15,0.13-0.24v-3.96h1.41v6.37
			c-0.01,0.47-0.13,0.85-0.36,1.14c-0.24,0.29-0.56,0.43-0.97,0.44h-3.32v-1.46H15.79"/>
		<path id="path2497_00000044896966787296998240000006203697709435377064_" class="st20" d="M18.73,21.4h2.54
			c0.23-0.01,0.35-0.1,0.36-0.28v-0.13c0-0.04-0.01-0.08-0.03-0.13c-0.06-0.11-0.13-0.17-0.21-0.17h-1.26
			c-0.37-0.01-0.69-0.14-0.96-0.38c-0.27-0.23-0.41-0.51-0.42-0.84v-1.09c0.01-0.85,0.48-1.28,1.39-1.3h2.94v1.46h-2.49
			c-0.29,0-0.44,0.09-0.44,0.27v0.14c0,0.19,0.15,0.28,0.45,0.28h1.25c0.33,0.01,0.62,0.14,0.86,0.39c0.24,0.25,0.36,0.55,0.37,0.9
			v1.07c-0.01,0.3-0.15,0.6-0.41,0.9c-0.13,0.15-0.26,0.25-0.4,0.3c-0.14,0.05-0.32,0.08-0.56,0.08h-2.98V21.4"/>
		<path id="path2499_00000140002328752467023620000018442044337466957227_" class="st20" d="M25.52,21.11c0,0.08,0.04,0.15,0.12,0.2
			c0.07,0.06,0.15,0.09,0.26,0.09h1.1c0.25,0,0.37-0.1,0.38-0.29V20.7c0-0.22-0.13-0.34-0.39-0.34h-1.08c-0.14,0-0.24,0.02-0.3,0.07
			c-0.05,0.05-0.08,0.16-0.08,0.31V21.11z M27.37,18.86c0.01-0.22-0.12-0.32-0.38-0.32h-2.87v-1.46h3.23
			c0.94,0.02,1.42,0.47,1.43,1.37v3.06c-0.01,0.39-0.13,0.71-0.36,0.96c-0.24,0.26-0.55,0.4-0.93,0.4h-1.95
			c-0.95-0.01-1.43-0.44-1.45-1.3v-1.18c0.01-0.9,0.47-1.36,1.38-1.38h1.9V18.86"/>
		<path id="path2501_00000089554041919913531730000005611512922545994395_" class="st20" d="M29.94,16.25
			c0.01-0.4,0.15-0.71,0.44-0.95c0.28-0.24,0.64-0.37,1.09-0.37h0.9v1.41h-0.55c-0.3,0.01-0.45,0.15-0.46,0.43v0.31h1.01v1.46h-1.01
			v4.32h-1.43V16.25"/>
		<path id="path2503_00000170240346000181957370000004357846166321950647_" class="st20" d="M36.42,18.83V18.8
			c0-0.08-0.03-0.14-0.09-0.19c-0.07-0.05-0.15-0.07-0.25-0.07h-0.99c-0.13,0-0.23,0.04-0.31,0.11c-0.1,0.07-0.15,0.16-0.15,0.27
			v0.59L36.42,18.83z M34.66,20.9v0.09c0,0.12,0.03,0.21,0.09,0.28c0.04,0.09,0.1,0.13,0.18,0.13h2.93v1.46h-3.11
			c-0.28,0-0.51-0.03-0.66-0.08c-0.17-0.06-0.32-0.15-0.46-0.28c-0.16-0.15-0.26-0.31-0.32-0.47c-0.06-0.17-0.09-0.39-0.09-0.67
			l-0.01-2.93c0.02-0.88,0.48-1.34,1.39-1.35h1.92c0.89,0.02,1.34,0.48,1.35,1.4v1.16L34.66,20.9"/>
		<path id="path2505_00000042699343681895939610000006648048023840252065_" class="st20" d="M11.77,32.72
			c-0.22,0-0.41-0.02-0.59-0.06c-0.19-0.03-0.37-0.12-0.56-0.26c-0.2-0.17-0.33-0.36-0.4-0.57c-0.08-0.21-0.12-0.44-0.12-0.71v-2.73
			c-0.01-0.22,0.01-0.42,0.07-0.59c0.05-0.17,0.15-0.33,0.3-0.5c0.17-0.17,0.35-0.28,0.54-0.34c0.18-0.05,0.38-0.07,0.61-0.07h2.18
			v0.34h-2.13c-0.38,0-0.67,0.08-0.89,0.23c-0.22,0.17-0.33,0.46-0.33,0.87v2.73c0,0.19,0.03,0.38,0.09,0.56
			c0.06,0.18,0.16,0.33,0.3,0.47c0.16,0.12,0.31,0.19,0.46,0.22c0.16,0.03,0.33,0.05,0.5,0.05h2.03v0.34H11.77"/>
		<path id="path2507_00000115481699739904235580000011794864123407564684_" class="st20" d="M19.41,29.18h-2.86
			c-0.34,0.01-0.61,0.11-0.8,0.32c-0.2,0.21-0.3,0.49-0.3,0.85v0.87c0,0.17,0.02,0.32,0.05,0.46c0.04,0.15,0.13,0.28,0.27,0.39
			c0.25,0.2,0.52,0.31,0.82,0.31h1.73c0.72-0.01,1.09-0.39,1.09-1.15V29.18z M19.75,31.14c0,0.22-0.02,0.41-0.05,0.58
			c-0.05,0.18-0.14,0.36-0.28,0.53c-0.3,0.32-0.67,0.47-1.11,0.46h-1.7c-0.44,0-0.8-0.13-1.08-0.4c-0.28-0.26-0.43-0.62-0.43-1.08
			v-0.88c0.01-0.99,0.51-1.5,1.48-1.53h2.84v-0.39c0-0.32-0.09-0.6-0.27-0.83c-0.12-0.16-0.25-0.26-0.41-0.31
			c-0.16-0.04-0.33-0.06-0.53-0.06h-3.09V26.9h2.93c0.27,0,0.51,0.02,0.73,0.06c0.11,0.02,0.22,0.07,0.31,0.13
			c0.1,0.06,0.19,0.15,0.28,0.27c0.26,0.34,0.39,0.73,0.39,1.17V31.14"/>
		<path id="path2509_00000178895181069175733000000013230960119844302010_" class="st20" d="M22.95,27.24
			c-0.79,0.01-1.18,0.45-1.17,1.3v4.18h-0.34v-4.18c-0.02-1.1,0.51-1.64,1.57-1.64h0.38v0.34H22.95"/>
		<path id="path2511_00000163760792220899043350000008480065972785827216_" class="st20" d="M28.71,27.24h-2.7
			c-0.19,0-0.37,0.02-0.53,0.06c-0.16,0.04-0.32,0.14-0.47,0.3c-0.14,0.15-0.23,0.29-0.27,0.44c-0.05,0.15-0.07,0.33-0.06,0.53v2.66
			c0,0.44,0.13,0.74,0.39,0.91c0.13,0.08,0.27,0.13,0.43,0.17c0.16,0.04,0.33,0.06,0.53,0.06h1.18c0.44,0,0.8-0.1,1.08-0.31
			c0.28-0.19,0.42-0.52,0.43-1V27.24z M29.05,31.1c-0.03,1.1-0.61,1.64-1.75,1.62h-1.26c-0.27,0-0.51-0.02-0.72-0.07
			c-0.22-0.06-0.43-0.19-0.63-0.4c-0.15-0.19-0.25-0.37-0.29-0.57c-0.05-0.19-0.07-0.41-0.07-0.64v-2.49
			c0.01-1.12,0.58-1.68,1.69-1.67h2.68v-1.89h0.34V31.1"/>
		<path id="path2513_00000023260803932433601980000013900143059737400759_" class="st21" d="M17.12,8.73
			c0.11-0.05,0.22-0.09,0.34-0.11c0.21-0.98,1.08-1.72,2.12-1.72c1.04,0,1.91,0.74,2.12,1.72c0.32,0.06,0.58,0.19,0.79,0.38
			c0.01-0.19,0-0.37-0.02-0.54c-0.13-1.48-1.38-2.65-2.89-2.65c-1.56,0-2.83,1.24-2.9,2.78c-0.01,0.13-0.01,0.27-0.01,0.42
			C16.79,8.91,16.94,8.81,17.12,8.73"/>
		<path id="path2515_00000162329620661123092590000007736392934488510094_" class="st21" d="M21.27,8.95h-3.48
			c-0.17,0-0.34,0.04-0.52,0.12c-0.17,0.08-0.31,0.17-0.43,0.27c-0.22,0.26-0.33,0.64-0.33,1.14v2.72c0.01,0.5,0.12,0.88,0.33,1.14
			c0.11,0.11,0.25,0.2,0.43,0.28c0.18,0.08,0.35,0.12,0.52,0.12h3.48c0.9-0.01,1.36-0.5,1.37-1.48v-2.83
			C22.62,9.45,22.17,8.96,21.27,8.95"/>
	</g>
</g>
</svg>
