<?xml version="1.0" encoding="UTF-8"?>
<svg width="39" height="39" xmlns="http://www.w3.org/2000/svg" viewBox="0 0 39 39">
  <defs>
    <style>
      .cls-1 {
        fill: #2263d5;
      }

      .cls-1, .cls-2, .cls-3 {
        stroke-width: 0px;
      }

      .cls-2 {
        fill: #fcfdfe;
      }

      .cls-3 {
        fill: #1557c7;
      }
    </style>
  </defs>
  <g id="_Слой_1" data-name="Слой 1">
    <circle class="cls-3" cx="19.5" cy="19.5" r="19.5"/>
  </g>
  <g id="_Слой_31" data-name="Слой 31">
    <g>
      <path class="cls-2" d="m13.09,9.63c1.76-1.01,3.51-2.02,5.27-3.02.34-.2.66-.46,1.1-.45.29,0,.54.07.79.21,2.09,1.21,4.17,2.43,6.27,3.61.64.36.91.83.9,1.57-.03,2.4-.02,4.8,0,7.2,0,.6-.23,1.02-.76,1.32-2.11,1.2-4.21,2.42-6.3,3.66-.62.37-1.16.33-1.77-.04-1.35-.81-2.73-1.57-4.1-2.35-.7-.41-1.4-.84-2.11-1.24-.46-.26-.77-.62-.77-1.17,0-2.57,0-5.14,0-7.71,0-.45.21-.8.59-1.04.3-.19.6-.37.9-.56Zm3.9.63c-.85.48-1.7.95-2.54,1.44-.27.16-.41.41-.41.74,0,1.75,0,3.5,0,5.26,0,.38.18.64.5.83.73.41,1.45.84,2.17,1.25.1.06.19.17.35.1,0-1.82,0-3.65,0-5.48,0-.2-.05-.41.12-.57.71.24,1.29.72,1.95,1.05.29.14.38.35.38.67-.01,1.77,0,3.53,0,5.3,0,.49.05.52.48.28,1.5-.86,3-1.74,4.5-2.6.33-.19.49-.46.49-.83,0-.85,0-1.7,0-2.56,0-.34-.11-.31-.35-.18-.75.44-1.5.86-2.25,1.3-.32.19-.45.12-.44-.25,0-.62,0-1.24,0-1.86,0-.31.11-.52.39-.68.72-.4,1.42-.82,2.13-1.23.44-.26.45-.33.02-.58-1.51-.88-3.03-1.74-4.54-2.62-.26-.15-.53-.19-.79-.04-.72.42-1.44.84-2.15,1.27Z"/>
      <path class="cls-1" d="m13.09,9.63c-.3.19-.6.37-.9.56-.38.24-.59.59-.59,1.04,0,2.57,0,5.14,0,7.71,0,.56.31.91.77,1.17.71.41,1.41.83,2.11,1.24-2.04-.09-4.09-.04-6.13-.03-.46,0-.58-.15-.58-.59.01-3.5.02-7.01,0-10.51,0-.48.16-.6.62-.6,1.57.02,3.13,0,4.7.01Z"/>
      <path class="cls-2" d="m21.05,28.57c.7.5.91.98.71,1.61-.21.65-.76,1.03-1.54,1.03-.78,0-1.55,0-2.33,0-.26,0-.36-.08-.36-.34,0-1.38.01-2.76,0-4.14,0-.3.12-.37.39-.36.68.01,1.36,0,2.05,0,.17,0,.34.03.5.07.52.12.92.4,1.06.93.13.5-.06.9-.49,1.19Zm-1.53.7s0,0,0-.01c-.17,0-.34,0-.51,0-.17,0-.29.04-.24.23.06.23-.18.61.15.68.38.08.8.03,1.19-.02.21-.02.35-.18.34-.42,0-.26-.15-.41-.38-.45-.18-.03-.37,0-.55,0Zm-.18-1.02c.2,0,.36,0,.51,0,.24-.02.41-.13.43-.39.01-.28-.17-.38-.4-.41-.21-.02-.43,0-.64-.02-.39-.05-.48.1-.48.48,0,.59.42.26.59.35Z"/>
      <path class="cls-2" d="m5.55,28.79c0-.67.01-1.33,0-2,0-.29.08-.42.39-.41.62.02,1.24,0,1.86.01.93.03,1.59.69,1.61,1.58.02.94-.58,1.61-1.53,1.7-.08,0-.15.01-.23.01-.85.02-.85.02-.86.85,0,.22.13.56-.1.63-.31.1-.67.05-1.01.01-.17-.02-.12-.23-.12-.36,0-.68,0-1.36,0-2.04Zm1.25-.77c-.07.38-.02.64.49.59.55-.05.82-.21.81-.6-.01-.39-.25-.51-.85-.55-.46-.03-.52.18-.45.55Z"/>
      <path class="cls-2" d="m15.48,29.51c.1-.4.23-.8.3-1.21.07-.39.24-.58.65-.52.15.02.31,0,.46,0,.21.01.32.09.24.33-.4,1.27-.75,2.55-1.19,3.8-.41,1.13-1.73,1.04-2.4.67-.2-.11-.25-.28-.1-.46.16-.19.18-.58.59-.44.1.03.2.1.3.12.35.06.49-.1.37-.44-.36-1.04-.7-2.07-1.08-3.1-.13-.35-.06-.48.32-.47,1.13.03.84-.16,1.17.87.09.29.17.58.25.87.04,0,.08,0,.12,0Z"/>
      <path class="cls-2" d="m31.29,29.94c0,.32,0,.64,0,.95,0,.23-.08.33-.33.32-1.08-.02-.86.12-.87-.84-.01-1.19,0-2.39,0-3.58,0-.32.09-.46.42-.42.12.02.25.02.37,0,.34-.04.43.12.42.43-.02.56,0,1.12,0,1.67,0,.14-.05.3.08.48.18-.27.35-.52.51-.77.22-.34.91-.55,1.26-.39.19.09.12.22.04.34-.19.28-.37.57-.58.84-.18.22-.21.4-.03.65.26.36.49.75.73,1.13.07.11.22.21.12.37-.09.15-.25.07-.38.09-.62.11-1.04-.11-1.27-.7-.08-.21-.24-.39-.36-.59-.04,0-.08.01-.12.02Z"/>
      <path class="cls-2" d="m13.21,29.54c0,.37-.03.75,0,1.11.04.44-.08.61-.55.58-.42-.03-.83-.08-1.28.05-.67.2-1.38-.23-1.73-.88-.35-.65-.25-1.57.25-2.13.48-.53,1.18-.71,1.85-.42.33.14.6-.1.92-.08.43.02.58.14.54.57-.03.4,0,.8,0,1.21Zm-1.17-.01c0-.36-.3-.69-.66-.71-.38-.02-.71.29-.72.69,0,.38.28.7.64.71.39.01.72-.3.73-.68Z"/>
      <path class="cls-2" d="m25.74,29.55c0,.43-.01.87,0,1.3.01.29-.1.41-.38.36-.28-.04-.59.12-.85-.12-.03-.02-.13.04-.2.06-.71.31-1.46.13-1.95-.48-.52-.64-.52-1.67,0-2.33.46-.59,1.25-.83,1.9-.5.31.16.52-.1.81-.08.66.06.66.02.66.66,0,.37,0,.74,0,1.12Zm-1.87.66c.37,0,.67-.28.68-.67.01-.4-.29-.73-.68-.73-.38,0-.69.32-.68.72,0,.38.29.67.67.67Z"/>
      <path class="cls-2" d="m26.18,29.48c0-.43.01-.87,0-1.3,0-.27.08-.43.37-.38.29.05.65-.17.87.23.05.1.14-.06.21-.1.99-.59,2-.04,2.03,1.11.01.62,0,1.24,0,1.86,0,.24-.07.33-.32.33-1.05-.02-.84.11-.86-.81,0-.37,0-.74-.01-1.12-.01-.35-.19-.55-.56-.54-.36.01-.53.22-.53.57,0,.5-.01.99,0,1.49,0,.29-.06.42-.39.41-.97-.03-.79.11-.81-.82,0-.31,0-.62,0-.93Z"/>
      <path class="cls-1" d="m16.99,10.26c.12,1.02.02,2.04.06,3.06,0,.17-.08.38.14.5-.17.16-.12.38-.12.57,0,1.83,0,3.66,0,5.48-.16.07-.25-.04-.35-.1-.73-.41-1.45-.84-2.17-1.25-.33-.18-.5-.45-.5-.83,0-1.75,0-3.5,0-5.26,0-.32.14-.58.41-.74.84-.49,1.69-.96,2.54-1.44Z"/>
    </g>
  </g>
</svg>