<?xml version="1.0" encoding="UTF-8"?>
<svg width="39" height="39" xmlns="http://www.w3.org/2000/svg" viewBox="0 0 39 39">
  <defs>
    <style>
      .cls-1, .cls-2 {
        stroke-width: 0px;
      }

      .cls-2 {
        fill: #fff;
      }
    </style>
  </defs>
  <g id="_Слой_1" data-name="Слой 1">
    <circle class="cls-2" cx="19.5" cy="19.5" r="19.5"/>
  </g>
  <g id="_Слой_24" data-name="Слой 24">
    <path class="cls-1" d="m24.9,18.55c-.61-.55-1.35-.82-2.2-.82s-1.58.27-2.19.82c-.61.54-.92,1.29-.92,2.26s.31,1.72.92,2.27c.61.54,1.35.81,2.19.81s1.59-.27,2.2-.81c.62-.55.93-1.31.93-2.27s-.31-1.72-.93-2.26Zm-3.36,3.49c-.32-.32-.49-.73-.49-1.23s.16-.92.49-1.22c.3-.31.72-.48,1.15-.47.44,0,.86.16,1.17.47.33.31.5.72.5,1.22s-.16.92-.5,1.23c-.32.31-.72.46-1.17.46-.43,0-.85-.16-1.15-.46Zm6.48,1.68v-8.07h-1.45v8.07h1.45Zm4.69-5.83v3.22c0,.78-.41,1.29-1.19,1.29s-1.2-.51-1.2-1.29v-3.22h-1.46v3.47c0,1.34.83,2.53,2.65,2.53h.01c1.81,0,2.64-1.21,2.64-2.53v-3.47h-1.46Zm-14.68,0l-1.45,3.95-1.45-3.95h-1.55l2.32,5.83h1.36l2.32-5.83h-1.55Zm-4.45,2.75c0-.85-.27-1.54-.78-2.09s-1.19-.82-2.01-.82-1.56.29-2.15.87c-.58.58-.87,1.31-.87,2.21s.29,1.65.85,2.22c.58.58,1.27.86,2.09.86,1.26,0,2.15-.56,2.69-1.71l-1.08-.64c-.36.72-.88,1.07-1.58,1.07-.87,0-1.48-.56-1.57-1.46h4.41v-.52h0Zm-2.84-1.79c.82,0,1.36.47,1.5,1.22h-3.07c.22-.69.82-1.22,1.57-1.22h0Zm-2.97,4.87l-1.95-3.48c1.23-.46,1.85-1.26,1.85-2.42,0-1.42-1.11-2.33-2.87-2.33H1.35v8.23h1.52v-3.34h1.29l1.87,3.34h1.74Zm-2.98-6.87c.9,0,1.35.36,1.35,1.08s-.45,1.08-1.35,1.08h-1.93v-2.16h1.93Zm31.83,7.03c-.94,0-1.7-.77-1.7-1.73v-5.84h1.45v1.58h1.25v1.2h-1.25v2.97c0,.28.22.51.5.51h.75v1.32h-1.01Z"/>
  </g>
</svg>