[
    {
        "logo": "/casino/b7casino-large.png",
        "name": "B7 Casino",
        "isFeatured": false,
        "bonus": "100 €",
        "additionalBonus": "+ 250 Free spins",
        "methods": ["visa", "masterc", "mifinity", "visa", "visa", "visa"],
        "ratingValue": 9.0,
        "ratingVotes": 8853,
        "features": [
            "Brand new online casino",
            "Welcome bonus package 100% up to €300 + 250 Free spins",
            "Fast and secure payments with Volt and low KYC"
        ],
        "link": "https://lucky7slots.net/?sub2=AGCPB7NL"
    },
    {
        "logo": "/casino/rakoo-large.png",
        "name": "Rakoo", 
        "marker": false,
        "bonus": "6000 €",
        "additionalBonus": "+ 100 Free spins",
        "methods": ["mifinity", "inter", "coins", "nods", "volt", "litecoin", "dogecoin",  "bitcoin", "tether", "ethereum"],
        "ratingValue": 9.8,
        "ratingVotes": 8179,
        "features": [
            "Brand new casino",
            "Welcome bonus package 100% up to 6000 € + 100 Free Spins",
            "Cashback 15% & low KYC"
        ],
        "link": "https://lucky7slots.net/?sub2=AGCPB7NL"
    }
]